{
  "updated_at": "2025-12-21T13:35:47Z",
  "place": "Yokosuka",
  "page": 9,
  "page_size": 20,
  "total_items": 267,
  "next_url": "page_010.json",
  "items": [
    {
      "id": "2025-12-21T13:35:47Z",
      "date": "2025-12-21",
      "text": "Good evening Yokosuka! ☁️ Current weather: 13.2°C, 77% humidity, and a gentle 28.1 km/h breeze. Perfect evening to grab a stroll around town! Tomorrow's weather is looking chilly, so bundle up for the events! 🎉 Don't miss the Yokosuka Countdown on Dec 31st, and explore the winter illuminations in the area! #Yokosuka #Miura #WinterWonderland",
      "place": "Yokosuka",
      "generated_at": "2025-12-21T13:35:47Z",
      "weather": {
        "source": "open-meteo",
        "generated_at": "2025-12-21T13:28:47Z",
        "place": "Yokosuka",
        "latitude": 35.281,
        "longitude": 139.6722,
        "timezone": "Asia/Tokyo",
        "current": {
          "time": "2025-12-21T22:15",
          "temp_c": 13.2,
          "apparent_temp_c": 8.9,
          "humidity_pct": 77,
          "precip_mm": 0.2,
          "weather_code": 53,
          "cloud_cover_pct": 67,
          "wind_kmh": 28.1,
          "wind_dir_deg": 358
        },
        "today": {
          "date": "2025-12-21",
          "weather_code": 65,
          "temp_max_c": 18.1,
          "temp_min_c": 13.1,
          "precip_sum_mm": 19.4,
          "wind_max_kmh": 34.0
        },
        "tomorrow": {
          "date": "2025-12-22",
          "weather_code": 3,
          "temp_max_c": 12.9,
          "temp_min_c": 7.6,
          "precip_sum_mm": 0.0,
          "wind_max_kmh": 37.9
        }
      }
    },
    {
      "id": "2025-12-21T12:45:41Z",
      "date": "2025-12-21",
      "text": "Hey Yokosuka! It's a chilly 13.4°C with 78% humidity and 0.1mm of precipitation today! Tomorrow's forecast is looking quite different with a high chance of rain. Stay cozy and warm up with us at the Yokosuka Countdown event on Dec 31st to Jan 1st! #Yokosuka #YokosukaCountdown",
      "place": "Yokosuka",
      "generated_at": "2025-12-21T12:45:41Z",
      "weather": {
        "source": "open-meteo",
        "generated_at": "2025-12-21T12:38:31Z",
        "place": "Yokosuka",
        "latitude": 35.281,
        "longitude": 139.6722,
        "timezone": "Asia/Tokyo",
        "current": {
          "time": "2025-12-21T21:30",
          "temp_c": 13.4,
          "apparent_temp_c": 9.5,
          "humidity_pct": 78,
          "precip_mm": 0.1,
          "weather_code": 51,
          "cloud_cover_pct": 63,
          "wind_kmh": 26.6,
          "wind_dir_deg": 351
        },
        "today": {
          "date": "2025-12-21",
          "weather_code": 65,
          "temp_max_c": 18.1,
          "temp_min_c": 13.1,
          "precip_sum_mm": 19.4,
          "wind_max_kmh": 34.0
        },
        "tomorrow": {
          "date": "2025-12-22",
          "weather_code": 3,
          "temp_max_c": 12.9,
          "temp_min_c": 7.6,
          "precip_sum_mm": 0.0,
          "wind_max_kmh": 37.9
        }
      }
    },
    {
      "id": "2025-12-21T11:46:25Z",
      "date": "2025-12-21",
      "text": "Good evening Yokosuka! Tonight's weather is mild with a temperature of 14.6°C, humidity at 85% and a gentle breeze. Make the most of the evening and head to Verney Park for the countdown event starting at 18:00 tomorrow! #Yokosuka #Miura #Yokohama",
      "place": "Yokosuka",
      "generated_at": "2025-12-21T11:46:25Z",
      "weather": {
        "source": "open-meteo",
        "generated_at": "2025-12-21T11:39:20Z",
        "place": "Yokosuka",
        "latitude": 35.281,
        "longitude": 139.6722,
        "timezone": "Asia/Tokyo",
        "current": {
          "time": "2025-12-21T20:30",
          "temp_c": 14.6,
          "apparent_temp_c": 11.5,
          "humidity_pct": 85,
          "precip_mm": 0.7,
          "weather_code": 63,
          "cloud_cover_pct": 68,
          "wind_kmh": 25.9,
          "wind_dir_deg": 339
        },
        "today": {
          "date": "2025-12-21",
          "weather_code": 65,
          "temp_max_c": 18.1,
          "temp_min_c": 13.3,
          "precip_sum_mm": 21.1,
          "wind_max_kmh": 28.0
        },
        "tomorrow": {
          "date": "2025-12-22",
          "weather_code": 3,
          "temp_max_c": 13.4,
          "temp_min_c": 7.5,
          "precip_sum_mm": 0.0,
          "wind_max_kmh": 39.1
        }
      }
    },
    {
      "id": "2025-12-21T11:24:30Z",
      "date": "2025-12-21",
      "text": "Good evening Yokosuka! LIVE WEATHER: Partly cloudy with 15.2°C, 87% humidity, and 0.7mm of precipitation. Perfect day to enjoy the outdoors! Join us for the Yokosuka Countdown event on Dec 31st, featuring live events, food, and fireworks. #Yokosuka #Miura #Yokohama",
      "place": "Yokosuka",
      "generated_at": "2025-12-21T11:24:30Z",
      "weather": {
        "source": "open-meteo",
        "generated_at": "2025-12-21T11:17:32Z",
        "place": "Yokosuka",
        "latitude": 35.281,
        "longitude": 139.6722,
        "timezone": "Asia/Tokyo",
        "current": {
          "time": "2025-12-21T20:15",
          "temp_c": 15.2,
          "apparent_temp_c": 12.7,
          "humidity_pct": 87,
          "precip_mm": 0.7,
          "weather_code": 63,
          "cloud_cover_pct": 70,
          "wind_kmh": 24.0,
          "wind_dir_deg": 334
        },
        "today": {
          "date": "2025-12-21",
          "weather_code": 65,
          "temp_max_c": 18.1,
          "temp_min_c": 13.3,
          "precip_sum_mm": 21.1,
          "wind_max_kmh": 28.0
        },
        "tomorrow": {
          "date": "2025-12-22",
          "weather_code": 3,
          "temp_max_c": 13.4,
          "temp_min_c": 7.5,
          "precip_sum_mm": 0.0,
          "wind_max_kmh": 39.1
        }
      }
    },
    {
      "id": "2025-12-21T10:52:22Z",
      "date": "2025-12-21",
      "text": "Hey Yokosuka! It's a cozy evening with 16°C, 89% humidity, and a gentle breeze. Perfect weather for a countdown party! Don't miss the Yokosuka Countdown 2025 on Dec 31st and Jan 1st at Velani Park! #Yokosuka #Miura #Yokohama #Zushi #Hayama #MiuraPeninsula #Kanagawa",
      "place": "Yokosuka",
      "generated_at": "2025-12-21T10:52:22Z",
      "weather": {
        "source": "open-meteo",
        "generated_at": "2025-12-21T10:45:49Z",
        "place": "Yokosuka",
        "latitude": 35.281,
        "longitude": 139.6722,
        "timezone": "Asia/Tokyo",
        "current": {
          "time": "2025-12-21T19:45",
          "temp_c": 16.0,
          "apparent_temp_c": 14.9,
          "humidity_pct": 89,
          "precip_mm": 0.2,
          "weather_code": 53,
          "cloud_cover_pct": 85,
          "wind_kmh": 16.8,
          "wind_dir_deg": 313
        },
        "today": {
          "date": "2025-12-21",
          "weather_code": 65,
          "temp_max_c": 18.1,
          "temp_min_c": 13.2,
          "precip_sum_mm": 21.8,
          "wind_max_kmh": 32.8
        },
        "tomorrow": {
          "date": "2025-12-22",
          "weather_code": 3,
          "temp_max_c": 13.1,
          "temp_min_c": 7.5,
          "precip_sum_mm": 0.0,
          "wind_max_kmh": 38.1
        }
      }
    },
    {
      "id": "2025-12-21T10:27:55Z",
      "date": "2025-12-21",
      "text": "Good evening Yokosuka! Today's weather is mild with 16.8°C and 87% humidity. Perfect for strolling around the city or enjoying the festive atmosphere at the Yokosuka Countdown event happening on December 31st and January 1st! #Yokosuka #Miura #Yokohama #Zushi #Hayama #MiuraPeninsula #Kanagawa",
      "place": "Yokosuka",
      "generated_at": "2025-12-21T10:27:55Z",
      "weather": {
        "source": "open-meteo",
        "generated_at": "2025-12-21T10:20:57Z",
        "place": "Yokosuka",
        "latitude": 35.281,
        "longitude": 139.6722,
        "timezone": "Asia/Tokyo",
        "current": {
          "time": "2025-12-21T19:15",
          "temp_c": 16.8,
          "apparent_temp_c": 16.6,
          "humidity_pct": 87,
          "precip_mm": 0.2,
          "weather_code": 53,
          "cloud_cover_pct": 94,
          "wind_kmh": 12.2,
          "wind_dir_deg": 251
        },
        "today": {
          "date": "2025-12-21",
          "weather_code": 65,
          "temp_max_c": 18.1,
          "temp_min_c": 13.2,
          "precip_sum_mm": 21.8,
          "wind_max_kmh": 32.8
        },
        "tomorrow": {
          "date": "2025-12-22",
          "weather_code": 3,
          "temp_max_c": 13.1,
          "temp_min_c": 7.5,
          "precip_sum_mm": 0.0,
          "wind_max_kmh": 38.1
        }
      }
    },
    {
      "id": "2025-12-21T09:51:01Z",
      "date": "2025-12-21",
      "text": "Good evening Yokosuka! Today's weather: 17.1°C, 86% humidity, and 0mm of precipitation. Perfect day to head out and enjoy the events! Don't miss the Yokosuka Countdown on December 31st and January 1st, featuring stage events, kitchen cars, and fireworks. #Yokosuka #YokosukaCountdown",
      "place": "Yokosuka",
      "generated_at": "2025-12-21T09:51:01Z",
      "weather": {
        "source": "open-meteo",
        "generated_at": "2025-12-21T09:42:39Z",
        "place": "Yokosuka",
        "latitude": 35.281,
        "longitude": 139.6722,
        "timezone": "Asia/Tokyo",
        "current": {
          "time": "2025-12-21T18:30",
          "temp_c": 17.1,
          "apparent_temp_c": 16.4,
          "humidity_pct": 86,
          "precip_mm": 0.0,
          "weather_code": 3,
          "cloud_cover_pct": 83,
          "wind_kmh": 15.3,
          "wind_dir_deg": 223
        },
        "today": {
          "date": "2025-12-21",
          "weather_code": 65,
          "temp_max_c": 18.1,
          "temp_min_c": 13.2,
          "precip_sum_mm": 21.8,
          "wind_max_kmh": 32.8
        },
        "tomorrow": {
          "date": "2025-12-22",
          "weather_code": 3,
          "temp_max_c": 13.1,
          "temp_min_c": 7.5,
          "precip_sum_mm": 0.0,
          "wind_max_kmh": 38.1
        }
      }
    },
    {
      "id": "2025-12-21T09:28:13Z",
      "date": "2025-12-21",
      "text": "Hey Yokosuka! Beautiful evening with 17.1°C and 86% humidity! Perfect time to head out for some fun! 🌃🌴 Don't miss the Yokosuka Countdown event on Dec 31st at Velliny Park, featuring live events, food stalls, and a spectacular firework display! #Yokosuka #Miura #Yokohama",
      "place": "Yokosuka",
      "generated_at": "2025-12-21T09:28:13Z",
      "weather": {
        "source": "open-meteo",
        "generated_at": "2025-12-21T09:21:07Z",
        "place": "Yokosuka",
        "latitude": 35.281,
        "longitude": 139.6722,
        "timezone": "Asia/Tokyo",
        "current": {
          "time": "2025-12-21T18:15",
          "temp_c": 17.1,
          "apparent_temp_c": 16.4,
          "humidity_pct": 86,
          "precip_mm": 0.0,
          "weather_code": 2,
          "cloud_cover_pct": 75,
          "wind_kmh": 15.3,
          "wind_dir_deg": 219
        },
        "today": {
          "date": "2025-12-21",
          "weather_code": 65,
          "temp_max_c": 18.1,
          "temp_min_c": 13.2,
          "precip_sum_mm": 21.8,
          "wind_max_kmh": 32.8
        },
        "tomorrow": {
          "date": "2025-12-22",
          "weather_code": 3,
          "temp_max_c": 13.1,
          "temp_min_c": 7.5,
          "precip_sum_mm": 0.0,
          "wind_max_kmh": 38.1
        }
      }
    },
    {
      "id": "2025-12-21T08:56:31Z",
      "date": "2025-12-21",
      "text": "Hey Yokosuka! Sunny 17°C with 86% humidity today! Perfect weather to explore the city or head to the park for some outdoor fun! Don't miss the countdown event on Dec 31st and New Year's Eve at Vellini Park, with live events, food trucks, and fireworks! #Yokosuka #YokosukaCountdown",
      "place": "Yokosuka",
      "generated_at": "2025-12-21T08:56:31Z",
      "weather": {
        "source": "open-meteo",
        "generated_at": "2025-12-21T08:49:31Z",
        "place": "Yokosuka",
        "latitude": 35.281,
        "longitude": 139.6722,
        "timezone": "Asia/Tokyo",
        "current": {
          "time": "2025-12-21T17:45",
          "temp_c": 17.0,
          "apparent_temp_c": 16.3,
          "humidity_pct": 86,
          "precip_mm": 0.0,
          "weather_code": 2,
          "cloud_cover_pct": 65,
          "wind_kmh": 16.0,
          "wind_dir_deg": 216
        },
        "today": {
          "date": "2025-12-21",
          "weather_code": 65,
          "temp_max_c": 18.1,
          "temp_min_c": 13.2,
          "precip_sum_mm": 21.8,
          "wind_max_kmh": 32.8
        },
        "tomorrow": {
          "date": "2025-12-22",
          "weather_code": 3,
          "temp_max_c": 13.1,
          "temp_min_c": 7.5,
          "precip_sum_mm": 0.0,
          "wind_max_kmh": 38.1
        }
      }
    },
    {
      "id": "2025-12-21T08:32:32Z",
      "date": "2025-12-21",
      "text": "Hey there, Yokosuka! It's a lovely 17°C with 86% humidity today! Perfect weather for exploring our city. Don't miss the Yokosuka Countdown 2025 on Dec 31st! Stage events, kitchen cars, and fireworks await! #Yokosuka #Miura #Yokohama",
      "place": "Yokosuka",
      "generated_at": "2025-12-21T08:32:32Z",
      "weather": {
        "source": "open-meteo",
        "generated_at": "2025-12-21T08:26:02Z",
        "place": "Yokosuka",
        "latitude": 35.281,
        "longitude": 139.6722,
        "timezone": "Asia/Tokyo",
        "current": {
          "time": "2025-12-21T17:15",
          "temp_c": 17.0,
          "apparent_temp_c": 16.1,
          "humidity_pct": 86,
          "precip_mm": 0.0,
          "weather_code": 2,
          "cloud_cover_pct": 54,
          "wind_kmh": 16.9,
          "wind_dir_deg": 214
        },
        "today": {
          "date": "2025-12-21",
          "weather_code": 65,
          "temp_max_c": 18.1,
          "temp_min_c": 13.2,
          "precip_sum_mm": 21.8,
          "wind_max_kmh": 32.8
        },
        "tomorrow": {
          "date": "2025-12-22",
          "weather_code": 3,
          "temp_max_c": 13.1,
          "temp_min_c": 7.5,
          "precip_sum_mm": 0.0,
          "wind_max_kmh": 38.1
        }
      }
    },
    {
      "id": "2025-12-21T07:47:24Z",
      "date": "2025-12-21",
      "text": "Hey Yokosuka! Good afternoon! Currently 17°C with 86% humidity and 0mm of precipitation. Looking forward to tonight's events! Don't miss the Yoksuka Countdown on Dec 31st-Jan 1st at Vellini Park featuring stage events, food trucks, and fireworks! #Yokosuka #YoksukaCountdown",
      "place": "Yokosuka",
      "generated_at": "2025-12-21T07:47:24Z",
      "weather": {
        "source": "open-meteo",
        "generated_at": "2025-12-21T07:40:49Z",
        "place": "Yokosuka",
        "latitude": 35.281,
        "longitude": 139.6722,
        "timezone": "Asia/Tokyo",
        "current": {
          "time": "2025-12-21T16:30",
          "temp_c": 17.0,
          "apparent_temp_c": 15.9,
          "humidity_pct": 86,
          "precip_mm": 0.0,
          "weather_code": 1,
          "cloud_cover_pct": 47,
          "wind_kmh": 17.6,
          "wind_dir_deg": 215
        },
        "today": {
          "date": "2025-12-21",
          "weather_code": 65,
          "temp_max_c": 18.1,
          "temp_min_c": 13.2,
          "precip_sum_mm": 21.8,
          "wind_max_kmh": 32.8
        },
        "tomorrow": {
          "date": "2025-12-22",
          "weather_code": 3,
          "temp_max_c": 13.1,
          "temp_min_c": 7.5,
          "precip_sum_mm": 0.0,
          "wind_max_kmh": 38.1
        }
      }
    },
    {
      "id": "2025-12-21T07:26:16Z",
      "date": "2025-12-21",
      "text": "Hey Yokosuka! Current weather: 17°C, partly cloudy, and a gentle breeze! Perfect day to explore the city or enjoy a stroll by the sea! Don't miss the #YokosukaCountdown event on Dec 31st, with stage events, food trucks, and fireworks! #Yokosuka #Miura #WinterWonderland",
      "place": "Yokosuka",
      "generated_at": "2025-12-21T07:26:16Z",
      "weather": {
        "source": "open-meteo",
        "generated_at": "2025-12-21T07:19:53Z",
        "place": "Yokosuka",
        "latitude": 35.281,
        "longitude": 139.6722,
        "timezone": "Asia/Tokyo",
        "current": {
          "time": "2025-12-21T16:15",
          "temp_c": 17.0,
          "apparent_temp_c": 15.9,
          "humidity_pct": 86,
          "precip_mm": 0.0,
          "weather_code": 1,
          "cloud_cover_pct": 45,
          "wind_kmh": 17.8,
          "wind_dir_deg": 216
        },
        "today": {
          "date": "2025-12-21",
          "weather_code": 65,
          "temp_max_c": 18.1,
          "temp_min_c": 13.2,
          "precip_sum_mm": 21.8,
          "wind_max_kmh": 32.8
        },
        "tomorrow": {
          "date": "2025-12-22",
          "weather_code": 3,
          "temp_max_c": 13.1,
          "temp_min_c": 7.5,
          "precip_sum_mm": 0.0,
          "wind_max_kmh": 38.1
        }
      }
    },
    {
      "id": "2025-12-21T07:01:47Z",
      "date": "2025-12-21",
      "text": "Good afternoon from Yokosuka! It's a lovely 16.9°C with 87% humidity today! Perfect weather to explore the city or enjoy some outdoor activities. Don't miss the Yokosuka Countdown event on Dec 31st, featuring stage events, food trucks, and a fireworks display! #Yokosuka #Miura #Yokohama",
      "place": "Yokosuka",
      "generated_at": "2025-12-21T07:01:47Z",
      "weather": {
        "source": "open-meteo",
        "generated_at": "2025-12-21T06:55:17Z",
        "place": "Yokosuka",
        "latitude": 35.281,
        "longitude": 139.6722,
        "timezone": "Asia/Tokyo",
        "current": {
          "time": "2025-12-21T15:45",
          "temp_c": 16.9,
          "apparent_temp_c": 15.8,
          "humidity_pct": 87,
          "precip_mm": 0.0,
          "weather_code": 2,
          "cloud_cover_pct": 65,
          "wind_kmh": 18.3,
          "wind_dir_deg": 216
        },
        "today": {
          "date": "2025-12-21",
          "weather_code": 65,
          "temp_max_c": 18.0,
          "temp_min_c": 13.4,
          "precip_sum_mm": 19.0,
          "wind_max_kmh": 31.4
        },
        "tomorrow": {
          "date": "2025-12-22",
          "weather_code": 3,
          "temp_max_c": 13.1,
          "temp_min_c": 7.2,
          "precip_sum_mm": 0.0,
          "wind_max_kmh": 39.0
        }
      }
    },
    {
      "id": "2025-12-21T06:37:00Z",
      "date": "2025-12-21",
      "text": "Hey Yokosuka! It's a lovely 17°C with 86% humidity today! Perfect weather to enjoy the outdoors before the winter chill sets in. Don't miss the Yokosuka Countdown 2025 at Verney Park on Dec 31st! #Yokosuka #Miura #Yokohama #Zushi",
      "place": "Yokosuka",
      "generated_at": "2025-12-21T06:37:00Z",
      "weather": {
        "source": "open-meteo",
        "generated_at": "2025-12-21T06:30:25Z",
        "place": "Yokosuka",
        "latitude": 35.281,
        "longitude": 139.6722,
        "timezone": "Asia/Tokyo",
        "current": {
          "time": "2025-12-21T15:30",
          "temp_c": 17.0,
          "apparent_temp_c": 15.9,
          "humidity_pct": 86,
          "precip_mm": 0.0,
          "weather_code": 2,
          "cloud_cover_pct": 65,
          "wind_kmh": 18.1,
          "wind_dir_deg": 215
        },
        "today": {
          "date": "2025-12-21",
          "weather_code": 65,
          "temp_max_c": 18.0,
          "temp_min_c": 13.4,
          "precip_sum_mm": 19.0,
          "wind_max_kmh": 31.4
        },
        "tomorrow": {
          "date": "2025-12-22",
          "weather_code": 3,
          "temp_max_c": 13.1,
          "temp_min_c": 7.2,
          "precip_sum_mm": 0.0,
          "wind_max_kmh": 39.0
        }
      }
    },
    {
      "id": "2025-12-21T05:52:19Z",
      "date": "2025-12-21",
      "text": "Good afternoon from Yokosuka! Today's weather is lovely with a high of 18°C and a gentle 17.9 km/h wind. Perfect day to explore the city or enjoy the park! Don't miss the Yokosuka Countdown event on Dec 31st, with live events, food stalls, and fireworks! #Yokosuka #YokosukaCountdown",
      "place": "Yokosuka",
      "generated_at": "2025-12-21T05:52:19Z",
      "weather": {
        "source": "open-meteo",
        "generated_at": "2025-12-21T05:45:45Z",
        "place": "Yokosuka",
        "latitude": 35.281,
        "longitude": 139.6722,
        "timezone": "Asia/Tokyo",
        "current": {
          "time": "2025-12-21T14:45",
          "temp_c": 17.3,
          "apparent_temp_c": 16.1,
          "humidity_pct": 82,
          "precip_mm": 0.0,
          "weather_code": 2,
          "cloud_cover_pct": 65,
          "wind_kmh": 17.9,
          "wind_dir_deg": 214
        },
        "today": {
          "date": "2025-12-21",
          "weather_code": 65,
          "temp_max_c": 18.0,
          "temp_min_c": 13.4,
          "precip_sum_mm": 19.0,
          "wind_max_kmh": 31.4
        },
        "tomorrow": {
          "date": "2025-12-22",
          "weather_code": 3,
          "temp_max_c": 13.1,
          "temp_min_c": 7.2,
          "precip_sum_mm": 0.0,
          "wind_max_kmh": 39.0
        }
      }
    },
    {
      "id": "2025-12-21T05:28:30Z",
      "date": "2025-12-21",
      "text": "Good afternoon Yokosuka! ☀️ Today's weather is lovely with a temp of 17.5°C and 81% humidity. Perfect day to head out to the park or enjoy a walk along the harbor! 🌳 Don't miss the Yokosuka Countdown event on Dec 31st and Jan 1st at Vellini Park! #Yokosuka #Miura",
      "place": "Yokosuka",
      "generated_at": "2025-12-21T05:28:30Z",
      "weather": {
        "source": "open-meteo",
        "generated_at": "2025-12-21T05:21:22Z",
        "place": "Yokosuka",
        "latitude": 35.281,
        "longitude": 139.6722,
        "timezone": "Asia/Tokyo",
        "current": {
          "time": "2025-12-21T14:15",
          "temp_c": 17.5,
          "apparent_temp_c": 16.2,
          "humidity_pct": 81,
          "precip_mm": 0.0,
          "weather_code": 2,
          "cloud_cover_pct": 61,
          "wind_kmh": 18.6,
          "wind_dir_deg": 216
        },
        "today": {
          "date": "2025-12-21",
          "weather_code": 65,
          "temp_max_c": 18.0,
          "temp_min_c": 13.4,
          "precip_sum_mm": 19.0,
          "wind_max_kmh": 31.4
        },
        "tomorrow": {
          "date": "2025-12-22",
          "weather_code": 3,
          "temp_max_c": 13.1,
          "temp_min_c": 7.2,
          "precip_sum_mm": 0.0,
          "wind_max_kmh": 39.0
        }
      }
    },
    {
      "id": "2025-12-21T05:03:13Z",
      "date": "2025-12-21",
      "text": "Hey Yokosuka! It's a lovely 17.2°C with 85% humidity today! Perfect weather to enjoy the outdoor events! Don't miss the Yokosuka Countdown 2025 on Dec 31st & Jan 1st at Vellini Park! #Yokosuka #Miura",
      "place": "Yokosuka",
      "generated_at": "2025-12-21T05:03:13Z",
      "weather": {
        "source": "open-meteo",
        "generated_at": "2025-12-21T04:56:09Z",
        "place": "Yokosuka",
        "latitude": 35.281,
        "longitude": 139.6722,
        "timezone": "Asia/Tokyo",
        "current": {
          "time": "2025-12-21T13:45",
          "temp_c": 17.2,
          "apparent_temp_c": 15.5,
          "humidity_pct": 85,
          "precip_mm": 0.0,
          "weather_code": 2,
          "cloud_cover_pct": 60,
          "wind_kmh": 22.9,
          "wind_dir_deg": 206
        },
        "today": {
          "date": "2025-12-21",
          "weather_code": 65,
          "temp_max_c": 18.2,
          "temp_min_c": 13.1,
          "precip_sum_mm": 20.4,
          "wind_max_kmh": 31.7
        },
        "tomorrow": {
          "date": "2025-12-22",
          "weather_code": 53,
          "temp_max_c": 13.0,
          "temp_min_c": 7.3,
          "precip_sum_mm": 0.6,
          "wind_max_kmh": 38.3
        }
      }
    },
    {
      "id": "2025-12-21T04:31:28Z",
      "date": "2025-12-21",
      "text": "Hey Yokosuka! Sunny day with 17.7°C and 82% humidity! Join us at the Verney Park Countdown Event on Dec 31st for a night to remember! Live music, kitchen cars, and fireworks await! #Yokosuka #Miura #Yokohama #Zushi #Hayama",
      "place": "Yokosuka",
      "generated_at": "2025-12-21T04:31:28Z",
      "weather": {
        "source": "open-meteo",
        "generated_at": "2025-12-21T04:25:02Z",
        "place": "Yokosuka",
        "latitude": 35.281,
        "longitude": 139.6722,
        "timezone": "Asia/Tokyo",
        "current": {
          "time": "2025-12-21T13:15",
          "temp_c": 17.7,
          "apparent_temp_c": 16.0,
          "humidity_pct": 82,
          "precip_mm": 0.0,
          "weather_code": 2,
          "cloud_cover_pct": 53,
          "wind_kmh": 22.4,
          "wind_dir_deg": 206
        },
        "today": {
          "date": "2025-12-21",
          "weather_code": 65,
          "temp_max_c": 18.2,
          "temp_min_c": 13.1,
          "precip_sum_mm": 20.4,
          "wind_max_kmh": 31.7
        },
        "tomorrow": {
          "date": "2025-12-22",
          "weather_code": 53,
          "temp_max_c": 13.0,
          "temp_min_c": 7.3,
          "precip_sum_mm": 0.6,
          "wind_max_kmh": 38.3
        }
      }
    },
    {
      "id": "2025-12-21T03:37:14Z",
      "date": "2025-12-21",
      "text": "Hey Yokosuka! It's a lovely day with 18°C and 78% humidity! Perfect weather to explore the city or enjoy the countdown event at Vellerny Park from 18:00 to 01:00 on Dec 31st! Don't miss it! #Yokosuka #Miura #Yokohama",
      "place": "Yokosuka",
      "generated_at": "2025-12-21T03:37:14Z",
      "weather": {
        "source": "open-meteo",
        "generated_at": "2025-12-21T03:30:19Z",
        "place": "Yokosuka",
        "latitude": 35.281,
        "longitude": 139.6722,
        "timezone": "Asia/Tokyo",
        "current": {
          "time": "2025-12-21T12:30",
          "temp_c": 18.0,
          "apparent_temp_c": 16.1,
          "humidity_pct": 78,
          "precip_mm": 0.0,
          "weather_code": 2,
          "cloud_cover_pct": 58,
          "wind_kmh": 21.6,
          "wind_dir_deg": 204
        },
        "today": {
          "date": "2025-12-21",
          "weather_code": 65,
          "temp_max_c": 18.2,
          "temp_min_c": 13.1,
          "precip_sum_mm": 20.4,
          "wind_max_kmh": 31.7
        },
        "tomorrow": {
          "date": "2025-12-22",
          "weather_code": 53,
          "temp_max_c": 13.0,
          "temp_min_c": 7.3,
          "precip_sum_mm": 0.6,
          "wind_max_kmh": 38.3
        }
      }
    },
    {
      "id": "2025-12-21T01:50:20Z",
      "date": "2025-12-21",
      "text": "Good morning Yokosuka! Today's weather is sunny with a high of 18.2°C and humidity of 74%. Perfect day to explore the city! Don't miss the Yoksuka Countdown event on Dec 31st, featuring live music, food trucks, and fireworks! #Yokosuka #Miura #Yokohama",
      "place": "Yokosuka",
      "generated_at": "2025-12-21T01:50:20Z",
      "weather": {
        "source": "open-meteo",
        "generated_at": "2025-12-21T01:43:55Z",
        "place": "Yokosuka",
        "latitude": 35.281,
        "longitude": 139.6722,
        "timezone": "Asia/Tokyo",
        "current": {
          "time": "2025-12-21T10:30",
          "temp_c": 18.2,
          "apparent_temp_c": 16.5,
          "humidity_pct": 74,
          "precip_mm": 0.0,
          "weather_code": 1,
          "cloud_cover_pct": 29,
          "wind_kmh": 19.1,
          "wind_dir_deg": 202
        },
        "today": {
          "date": "2025-12-21",
          "weather_code": 65,
          "temp_max_c": 18.2,
          "temp_min_c": 13.1,
          "precip_sum_mm": 20.4,
          "wind_max_kmh": 31.7
        },
        "tomorrow": {
          "date": "2025-12-22",
          "weather_code": 53,
          "temp_max_c": 13.0,
          "temp_min_c": 7.3,
          "precip_sum_mm": 0.6,
          "wind_max_kmh": 38.3
        }
      }
    }
  ]
}
