{
  "updated_at": "2025-12-20T16:24:53Z",
  "place": "Yokosuka",
  "page": 11,
  "page_size": 20,
  "total_items": 267,
  "next_url": "page_012.json",
  "items": [
    {
      "id": "2025-12-20T16:24:53Z",
      "date": "2025-12-20",
      "text": "Mild and cozy morning in Yokosuka! Today's forecast: partly cloudy with a high of 18.5°C and a gentle breeze of 21.9 km/h. Perfect for a stroll around the harbor or hiking in the hills! #Yokosuka #Miura",
      "place": "Yokosuka",
      "generated_at": "2025-12-20T16:24:53Z",
      "weather": {
        "source": "open-meteo",
        "generated_at": "2025-12-20T16:23:07Z",
        "place": "Yokosuka",
        "latitude": 35.281,
        "longitude": 139.6722,
        "timezone": "Asia/Tokyo",
        "current": {
          "time": "2025-12-21T01:15",
          "temp_c": 18.5,
          "apparent_temp_c": 17.2,
          "humidity_pct": 82,
          "precip_mm": 0.0,
          "weather_code": 3,
          "cloud_cover_pct": 97,
          "wind_kmh": 21.9,
          "wind_dir_deg": 194
        },
        "today": {
          "date": "2025-12-21",
          "weather_code": 63,
          "temp_max_c": 18.5,
          "temp_min_c": 12.1,
          "precip_sum_mm": 13.6,
          "wind_max_kmh": 30.3
        },
        "tomorrow": {
          "date": "2025-12-22",
          "weather_code": 53,
          "temp_max_c": 12.6,
          "temp_min_c": 7.3,
          "precip_sum_mm": 0.7,
          "wind_max_kmh": 41.1
        }
      }
    },
    {
      "id": "2025-12-20T16:08:11Z",
      "date": "2025-12-20",
      "text": "Tropical feel in Yokosuka today! Cloudy skies with 18.5°C, 82% humidity, and a gentle breeze at 21.9km/h. Perfect weather for a stroll along the Miura Peninsula coast! #Yokosuka #Miura",
      "place": "Yokosuka",
      "generated_at": "2025-12-20T16:08:11Z",
      "weather": {
        "source": "open-meteo",
        "generated_at": "2025-12-20T16:06:27Z",
        "place": "Yokosuka",
        "latitude": 35.281,
        "longitude": 139.6722,
        "timezone": "Asia/Tokyo",
        "current": {
          "time": "2025-12-21T01:00",
          "temp_c": 18.5,
          "apparent_temp_c": 17.2,
          "humidity_pct": 82,
          "precip_mm": 0.0,
          "weather_code": 3,
          "cloud_cover_pct": 94,
          "wind_kmh": 21.9,
          "wind_dir_deg": 194
        },
        "today": {
          "date": "2025-12-21",
          "weather_code": 63,
          "temp_max_c": 18.5,
          "temp_min_c": 12.1,
          "precip_sum_mm": 13.6,
          "wind_max_kmh": 30.3
        },
        "tomorrow": {
          "date": "2025-12-22",
          "weather_code": 53,
          "temp_max_c": 12.6,
          "temp_min_c": 7.3,
          "precip_sum_mm": 0.7,
          "wind_max_kmh": 41.1
        }
      }
    },
    {
      "id": "2025-12-20T15:43:37Z",
      "date": "2025-12-20",
      "text": "Clear skies in Yokosuka today! Temp's at 18.5°C, humidity's at 81% and wind's blowing at 24.2km/h. Enjoy your day out, and don't forget to look for Mt. Fuji if the weather stays fine! #Yokosuka #Miura #Yokohama",
      "place": "Yokosuka",
      "generated_at": "2025-12-20T15:43:37Z",
      "weather": {
        "source": "open-meteo",
        "generated_at": "2025-12-20T15:41:42Z",
        "place": "Yokosuka",
        "latitude": 35.281,
        "longitude": 139.6722,
        "timezone": "Asia/Tokyo",
        "current": {
          "time": "2025-12-21T00:30",
          "temp_c": 18.5,
          "apparent_temp_c": 16.6,
          "humidity_pct": 81,
          "precip_mm": 1.2,
          "weather_code": 63,
          "cloud_cover_pct": 72,
          "wind_kmh": 24.2,
          "wind_dir_deg": 195
        },
        "today": {
          "date": "2025-12-21",
          "weather_code": 63,
          "temp_max_c": 18.5,
          "temp_min_c": 12.1,
          "precip_sum_mm": 13.6,
          "wind_max_kmh": 30.3
        },
        "tomorrow": {
          "date": "2025-12-22",
          "weather_code": 53,
          "temp_max_c": 12.6,
          "temp_min_c": 7.3,
          "precip_sum_mm": 0.7,
          "wind_max_kmh": 41.1
        }
      }
    },
    {
      "id": "2025-12-20T15:22:06Z",
      "date": "2025-12-20",
      "text": "Cloudy skies with 81% humidity in Yokosuka today! Temp's steady at 18.4°C with 1.2mm of precipitation so far. Perfect day to explore the coast or hike the hills of Miura Peninsula! #Yokosuka #Miura #Yokohama",
      "place": "Yokosuka",
      "generated_at": "2025-12-20T15:22:06Z",
      "weather": {
        "source": "open-meteo",
        "generated_at": "2025-12-20T15:20:15Z",
        "place": "Yokosuka",
        "latitude": 35.281,
        "longitude": 139.6722,
        "timezone": "Asia/Tokyo",
        "current": {
          "time": "2025-12-21T00:15",
          "temp_c": 18.4,
          "apparent_temp_c": 16.3,
          "humidity_pct": 81,
          "precip_mm": 1.2,
          "weather_code": 63,
          "cloud_cover_pct": 61,
          "wind_kmh": 25.7,
          "wind_dir_deg": 195
        },
        "today": {
          "date": "2025-12-21",
          "weather_code": 63,
          "temp_max_c": 18.5,
          "temp_min_c": 12.1,
          "precip_sum_mm": 13.6,
          "wind_max_kmh": 30.3
        },
        "tomorrow": {
          "date": "2025-12-22",
          "weather_code": 53,
          "temp_max_c": 12.6,
          "temp_min_c": 7.3,
          "precip_sum_mm": 0.7,
          "wind_max_kmh": 41.1
        }
      }
    },
    {
      "id": "2025-12-20T14:45:57Z",
      "date": "2025-12-20",
      "text": "Cloudy and cool in Yokosuka tonight, with 18°C and 84% humidity! Tomorrow looks slightly warmer, but still a bit windy. Enjoy the evening stroll with a view of Mt. Fuji if you're near a good spot! #Yokosuka #Miura",
      "place": "Yokosuka",
      "generated_at": "2025-12-20T14:45:57Z",
      "weather": {
        "source": "open-meteo",
        "generated_at": "2025-12-20T14:44:08Z",
        "place": "Yokosuka",
        "latitude": 35.281,
        "longitude": 139.6722,
        "timezone": "Asia/Tokyo",
        "current": {
          "time": "2025-12-20T23:30",
          "temp_c": 18.0,
          "apparent_temp_c": 16.6,
          "humidity_pct": 84,
          "precip_mm": 1.1,
          "weather_code": 63,
          "cloud_cover_pct": 73,
          "wind_kmh": 22.0,
          "wind_dir_deg": 198
        },
        "today": {
          "date": "2025-12-20",
          "weather_code": 63,
          "temp_max_c": 18.1,
          "temp_min_c": 8.9,
          "precip_sum_mm": 21.3,
          "wind_max_kmh": 20.3
        },
        "tomorrow": {
          "date": "2025-12-21",
          "weather_code": 63,
          "temp_max_c": 18.5,
          "temp_min_c": 12.1,
          "precip_sum_mm": 13.6,
          "wind_max_kmh": 30.3
        }
      }
    },
    {
      "id": "2025-12-20T13:47:47Z",
      "date": "2025-12-20",
      "text": "Warm evening in Yokosuka! 17.9°C, 86% humidity, with a chance of light rain (0.5mm). Clear skies allow for a glimpse of Mt. Fuji from some locations. #Yokosuka #Miura #Yokohama",
      "place": "Yokosuka",
      "generated_at": "2025-12-20T13:47:47Z",
      "weather": {
        "source": "open-meteo",
        "generated_at": "2025-12-20T13:45:57Z",
        "place": "Yokosuka",
        "latitude": 35.281,
        "longitude": 139.6722,
        "timezone": "Asia/Tokyo",
        "current": {
          "time": "2025-12-20T22:45",
          "temp_c": 17.9,
          "apparent_temp_c": 17.1,
          "humidity_pct": 86,
          "precip_mm": 0.5,
          "weather_code": 61,
          "cloud_cover_pct": 85,
          "wind_kmh": 18.7,
          "wind_dir_deg": 199
        },
        "today": {
          "date": "2025-12-20",
          "weather_code": 63,
          "temp_max_c": 18.1,
          "temp_min_c": 8.9,
          "precip_sum_mm": 21.3,
          "wind_max_kmh": 20.3
        },
        "tomorrow": {
          "date": "2025-12-21",
          "weather_code": 63,
          "temp_max_c": 18.5,
          "temp_min_c": 12.1,
          "precip_sum_mm": 13.6,
          "wind_max_kmh": 30.3
        }
      }
    },
    {
      "id": "2025-12-20T13:30:40Z",
      "date": "2025-12-20",
      "text": "Tonight in Yokosuka, expect partly cloudy skies with a high of 18.1°C, low of 8.9°C, and 0.5mm of precipitation. Winds will be gentle at 20.7km/h from the west. Enjoy the scenic views of Mt. Fuji on a clear day, and explore the Miura Peninsula's coastal areas, harbors, and…",
      "place": "Yokosuka",
      "generated_at": "2025-12-20T13:30:40Z",
      "weather": {
        "source": "open-meteo",
        "generated_at": "2025-12-20T13:28:47Z",
        "place": "Yokosuka",
        "latitude": 35.281,
        "longitude": 139.6722,
        "timezone": "Asia/Tokyo",
        "current": {
          "time": "2025-12-20T22:15",
          "temp_c": 18.1,
          "apparent_temp_c": 16.9,
          "humidity_pct": 83,
          "precip_mm": 0.5,
          "weather_code": 61,
          "cloud_cover_pct": 76,
          "wind_kmh": 20.7,
          "wind_dir_deg": 193
        },
        "today": {
          "date": "2025-12-20",
          "weather_code": 63,
          "temp_max_c": 18.1,
          "temp_min_c": 8.9,
          "precip_sum_mm": 21.3,
          "wind_max_kmh": 20.3
        },
        "tomorrow": {
          "date": "2025-12-21",
          "weather_code": 63,
          "temp_max_c": 18.5,
          "temp_min_c": 12.1,
          "precip_sum_mm": 13.6,
          "wind_max_kmh": 30.3
        }
      }
    },
    {
      "id": "2025-12-20T12:40:48Z",
      "date": "2025-12-20",
      "text": "Warm evening in Yokosuka! Today's high: 18.4°C, partly cloudy with 6.5mm of precipitation. Enjoy the scenic views of Mt. Fuji on a clear day, and explore the Miura Peninsula's coastline, fishing ports, and hiking trails! #Yokosuka #Miura",
      "place": "Yokosuka",
      "generated_at": "2025-12-20T12:40:48Z",
      "weather": {
        "source": "open-meteo",
        "generated_at": "2025-12-20T12:38:58Z",
        "place": "Yokosuka",
        "latitude": 35.281,
        "longitude": 139.6722,
        "timezone": "Asia/Tokyo",
        "current": {
          "time": "2025-12-20T21:30",
          "temp_c": 16.6,
          "apparent_temp_c": 16.2,
          "humidity_pct": 87,
          "precip_mm": 0.1,
          "weather_code": 51,
          "cloud_cover_pct": 77,
          "wind_kmh": 12.6,
          "wind_dir_deg": 185
        },
        "today": {
          "date": "2025-12-20",
          "weather_code": 61,
          "temp_max_c": 18.4,
          "temp_min_c": 8.9,
          "precip_sum_mm": 6.5,
          "wind_max_kmh": 25.4
        },
        "tomorrow": {
          "date": "2025-12-21",
          "weather_code": 55,
          "temp_max_c": 18.8,
          "temp_min_c": 13.4,
          "precip_sum_mm": 2.9,
          "wind_max_kmh": 30.6
        }
      }
    },
    {
      "id": "2025-12-20T11:41:19Z",
      "date": "2025-12-20",
      "text": "Cloudy skies in Yokosuka today! Temps reaching 17.5°C with 92% humidity. Light winds from the east. Perfect day to explore the city or take a hike on Miura Peninsula! #Yokosuka #Miura",
      "place": "Yokosuka",
      "generated_at": "2025-12-20T11:41:19Z",
      "weather": {
        "source": "open-meteo",
        "generated_at": "2025-12-20T11:39:29Z",
        "place": "Yokosuka",
        "latitude": 35.281,
        "longitude": 139.6722,
        "timezone": "Asia/Tokyo",
        "current": {
          "time": "2025-12-20T20:30",
          "temp_c": 15.8,
          "apparent_temp_c": 16.6,
          "humidity_pct": 92,
          "precip_mm": 1.7,
          "weather_code": 63,
          "cloud_cover_pct": 65,
          "wind_kmh": 3.9,
          "wind_dir_deg": 236
        },
        "today": {
          "date": "2025-12-20",
          "weather_code": 63,
          "temp_max_c": 17.5,
          "temp_min_c": 8.9,
          "precip_sum_mm": 15.2,
          "wind_max_kmh": 17.6
        },
        "tomorrow": {
          "date": "2025-12-21",
          "weather_code": 61,
          "temp_max_c": 18.5,
          "temp_min_c": 12.1,
          "precip_sum_mm": 8.3,
          "wind_max_kmh": 31.0
        }
      }
    },
    {
      "id": "2025-12-20T11:19:05Z",
      "date": "2025-12-20",
      "text": "Clear skies over Yokosuka! Temp's mild at 15.2°C, humidity's 93%, and there's a gentle 3.5km/h breeze. Perfect day to enjoy the city or hike in Miura Peninsula! #Yokosuka #Miura",
      "place": "Yokosuka",
      "generated_at": "2025-12-20T11:19:05Z",
      "weather": {
        "source": "open-meteo",
        "generated_at": "2025-12-20T11:17:27Z",
        "place": "Yokosuka",
        "latitude": 35.281,
        "longitude": 139.6722,
        "timezone": "Asia/Tokyo",
        "current": {
          "time": "2025-12-20T20:15",
          "temp_c": 15.2,
          "apparent_temp_c": 16.1,
          "humidity_pct": 93,
          "precip_mm": 1.7,
          "weather_code": 63,
          "cloud_cover_pct": 79,
          "wind_kmh": 3.5,
          "wind_dir_deg": 294
        },
        "today": {
          "date": "2025-12-20",
          "weather_code": 63,
          "temp_max_c": 17.5,
          "temp_min_c": 8.9,
          "precip_sum_mm": 15.2,
          "wind_max_kmh": 17.6
        },
        "tomorrow": {
          "date": "2025-12-21",
          "weather_code": 61,
          "temp_max_c": 18.5,
          "temp_min_c": 12.1,
          "precip_sum_mm": 8.3,
          "wind_max_kmh": 31.0
        }
      }
    },
    {
      "id": "2025-12-20T10:46:11Z",
      "date": "2025-12-20",
      "text": "Warm evening in Yokosuka! Temp's a cozy 15.1°C with 93% humidity. Perfect time to enjoy the sea view with a gentle 3.9km/h breeze. #Yokosuka #Miura",
      "place": "Yokosuka",
      "generated_at": "2025-12-20T10:46:11Z",
      "weather": {
        "source": "open-meteo",
        "generated_at": "2025-12-20T10:44:28Z",
        "place": "Yokosuka",
        "latitude": 35.281,
        "longitude": 139.6722,
        "timezone": "Asia/Tokyo",
        "current": {
          "time": "2025-12-20T19:30",
          "temp_c": 15.1,
          "apparent_temp_c": 15.8,
          "humidity_pct": 93,
          "precip_mm": 0.1,
          "weather_code": 51,
          "cloud_cover_pct": 89,
          "wind_kmh": 3.9,
          "wind_dir_deg": 326
        },
        "today": {
          "date": "2025-12-20",
          "weather_code": 63,
          "temp_max_c": 17.5,
          "temp_min_c": 8.9,
          "precip_sum_mm": 15.2,
          "wind_max_kmh": 17.6
        },
        "tomorrow": {
          "date": "2025-12-21",
          "weather_code": 61,
          "temp_max_c": 18.5,
          "temp_min_c": 12.1,
          "precip_sum_mm": 8.3,
          "wind_max_kmh": 31.0
        }
      }
    },
    {
      "id": "2025-12-20T10:22:36Z",
      "date": "2025-12-20",
      "text": "Foggy evening in Yokosuka! Current temp is 15.1°C with 92% humidity. Precipitation is light at 0.1mm. Enjoy the view of Mt. Fuji if it's a clear day! #Yokosuka #Miura",
      "place": "Yokosuka",
      "generated_at": "2025-12-20T10:22:36Z",
      "weather": {
        "source": "open-meteo",
        "generated_at": "2025-12-20T10:20:49Z",
        "place": "Yokosuka",
        "latitude": 35.281,
        "longitude": 139.6722,
        "timezone": "Asia/Tokyo",
        "current": {
          "time": "2025-12-20T19:15",
          "temp_c": 15.1,
          "apparent_temp_c": 15.9,
          "humidity_pct": 92,
          "precip_mm": 0.1,
          "weather_code": 51,
          "cloud_cover_pct": 89,
          "wind_kmh": 3.2,
          "wind_dir_deg": 333
        },
        "today": {
          "date": "2025-12-20",
          "weather_code": 63,
          "temp_max_c": 17.5,
          "temp_min_c": 8.9,
          "precip_sum_mm": 15.2,
          "wind_max_kmh": 17.6
        },
        "tomorrow": {
          "date": "2025-12-21",
          "weather_code": 61,
          "temp_max_c": 18.5,
          "temp_min_c": 12.1,
          "precip_sum_mm": 8.3,
          "wind_max_kmh": 31.0
        }
      }
    },
    {
      "id": "2025-12-20T09:43:49Z",
      "date": "2025-12-20",
      "text": "Enjoy the mild evening in Yokosuka! Temp: 15.1°C, humidity: 91%, precip: 1mm. Great time for a stroll along the Miura Peninsula's coastline or a hike on its hillside. #Yokosuka #Miura",
      "place": "Yokosuka",
      "generated_at": "2025-12-20T09:43:49Z",
      "weather": {
        "source": "open-meteo",
        "generated_at": "2025-12-20T09:41:54Z",
        "place": "Yokosuka",
        "latitude": 35.281,
        "longitude": 139.6722,
        "timezone": "Asia/Tokyo",
        "current": {
          "time": "2025-12-20T18:30",
          "temp_c": 15.1,
          "apparent_temp_c": 15.7,
          "humidity_pct": 91,
          "precip_mm": 1.0,
          "weather_code": 63,
          "cloud_cover_pct": 71,
          "wind_kmh": 3.3,
          "wind_dir_deg": 311
        },
        "today": {
          "date": "2025-12-20",
          "weather_code": 63,
          "temp_max_c": 17.5,
          "temp_min_c": 8.9,
          "precip_sum_mm": 15.2,
          "wind_max_kmh": 17.6
        },
        "tomorrow": {
          "date": "2025-12-21",
          "weather_code": 61,
          "temp_max_c": 18.5,
          "temp_min_c": 12.1,
          "precip_sum_mm": 8.3,
          "wind_max_kmh": 31.0
        }
      }
    },
    {
      "id": "2025-12-20T09:22:44Z",
      "date": "2025-12-20",
      "text": "Cloudy skies with 15°C and 91% humidity today in Yokosuka! Expect 15mm of precipitation and 3.4km/h winds. Enjoy the scenic views of Mt. Fuji on a clear day #Yokosuka #Miura",
      "place": "Yokosuka",
      "generated_at": "2025-12-20T09:22:44Z",
      "weather": {
        "source": "open-meteo",
        "generated_at": "2025-12-20T09:20:56Z",
        "place": "Yokosuka",
        "latitude": 35.281,
        "longitude": 139.6722,
        "timezone": "Asia/Tokyo",
        "current": {
          "time": "2025-12-20T18:15",
          "temp_c": 15.0,
          "apparent_temp_c": 15.6,
          "humidity_pct": 91,
          "precip_mm": 1.0,
          "weather_code": 63,
          "cloud_cover_pct": 63,
          "wind_kmh": 3.4,
          "wind_dir_deg": 302
        },
        "today": {
          "date": "2025-12-20",
          "weather_code": 63,
          "temp_max_c": 17.5,
          "temp_min_c": 8.9,
          "precip_sum_mm": 15.2,
          "wind_max_kmh": 17.6
        },
        "tomorrow": {
          "date": "2025-12-21",
          "weather_code": 61,
          "temp_max_c": 18.5,
          "temp_min_c": 12.1,
          "precip_sum_mm": 8.3,
          "wind_max_kmh": 31.0
        }
      }
    },
    {
      "id": "2025-12-20T08:50:33Z",
      "date": "2025-12-20",
      "text": "Lovely Yokosuka day! Currently 14.9°C with 89% humidity and partly cloudy skies. A perfect day to enjoy the coastal views or hike up the hills of Miura Peninsula! #Yokosuka #Miura",
      "place": "Yokosuka",
      "generated_at": "2025-12-20T08:50:33Z",
      "weather": {
        "source": "open-meteo",
        "generated_at": "2025-12-20T08:48:48Z",
        "place": "Yokosuka",
        "latitude": 35.281,
        "longitude": 139.6722,
        "timezone": "Asia/Tokyo",
        "current": {
          "time": "2025-12-20T17:45",
          "temp_c": 14.9,
          "apparent_temp_c": 15.5,
          "humidity_pct": 89,
          "precip_mm": 0.0,
          "weather_code": 2,
          "cloud_cover_pct": 62,
          "wind_kmh": 2.8,
          "wind_dir_deg": 320
        },
        "today": {
          "date": "2025-12-20",
          "weather_code": 63,
          "temp_max_c": 17.5,
          "temp_min_c": 8.9,
          "precip_sum_mm": 15.2,
          "wind_max_kmh": 17.6
        },
        "tomorrow": {
          "date": "2025-12-21",
          "weather_code": 61,
          "temp_max_c": 18.5,
          "temp_min_c": 12.1,
          "precip_sum_mm": 8.3,
          "wind_max_kmh": 31.0
        }
      }
    },
    {
      "id": "2025-12-20T08:28:26Z",
      "date": "2025-12-20",
      "text": "Cloudy skies with a high of 17.5°C and 85% humidity in Yokosuka today! Take a stroll by the sea or explore the hills of Miura Peninsula with a gentle 3.7 km/h breeze. #Yokosuka #Miura",
      "place": "Yokosuka",
      "generated_at": "2025-12-20T08:28:26Z",
      "weather": {
        "source": "open-meteo",
        "generated_at": "2025-12-20T08:26:42Z",
        "place": "Yokosuka",
        "latitude": 35.281,
        "longitude": 139.6722,
        "timezone": "Asia/Tokyo",
        "current": {
          "time": "2025-12-20T17:15",
          "temp_c": 14.8,
          "apparent_temp_c": 15.0,
          "humidity_pct": 85,
          "precip_mm": 0.0,
          "weather_code": 2,
          "cloud_cover_pct": 71,
          "wind_kmh": 3.7,
          "wind_dir_deg": 29
        },
        "today": {
          "date": "2025-12-20",
          "weather_code": 63,
          "temp_max_c": 17.5,
          "temp_min_c": 8.9,
          "precip_sum_mm": 15.2,
          "wind_max_kmh": 17.6
        },
        "tomorrow": {
          "date": "2025-12-21",
          "weather_code": 61,
          "temp_max_c": 18.5,
          "temp_min_c": 12.1,
          "precip_sum_mm": 8.3,
          "wind_max_kmh": 31.0
        }
      }
    },
    {
      "id": "2025-12-20T07:41:46Z",
      "date": "2025-12-20",
      "text": "Partly cloudy day in Yokosuka! Temps reaching 17.5°C with 84% humidity. Not a drop of rain expected. Perfect day to enjoy the city or head out to the Miura Peninsula for some hiking! #Yokosuka #Miura",
      "place": "Yokosuka",
      "generated_at": "2025-12-20T07:41:46Z",
      "weather": {
        "source": "open-meteo",
        "generated_at": "2025-12-20T07:39:57Z",
        "place": "Yokosuka",
        "latitude": 35.281,
        "longitude": 139.6722,
        "timezone": "Asia/Tokyo",
        "current": {
          "time": "2025-12-20T16:30",
          "temp_c": 14.4,
          "apparent_temp_c": 14.4,
          "humidity_pct": 84,
          "precip_mm": 0.0,
          "weather_code": 3,
          "cloud_cover_pct": 84,
          "wind_kmh": 4.2,
          "wind_dir_deg": 59
        },
        "today": {
          "date": "2025-12-20",
          "weather_code": 63,
          "temp_max_c": 17.5,
          "temp_min_c": 8.9,
          "precip_sum_mm": 15.2,
          "wind_max_kmh": 17.6
        },
        "tomorrow": {
          "date": "2025-12-21",
          "weather_code": 61,
          "temp_max_c": 18.5,
          "temp_min_c": 12.1,
          "precip_sum_mm": 8.3,
          "wind_max_kmh": 31.0
        }
      }
    },
    {
      "id": "2025-12-20T07:21:10Z",
      "date": "2025-12-20",
      "text": "Sunny skies in Yokosuka today! Temp's a comfortable 14.3°C with 83% humidity. Wind's gentle at 4.2 km/h from 70°. Perfect day to explore the Miura Peninsula's scenic coastline and hills! #Yokosuka #Miura",
      "place": "Yokosuka",
      "generated_at": "2025-12-20T07:21:10Z",
      "weather": {
        "source": "open-meteo",
        "generated_at": "2025-12-20T07:19:23Z",
        "place": "Yokosuka",
        "latitude": 35.281,
        "longitude": 139.6722,
        "timezone": "Asia/Tokyo",
        "current": {
          "time": "2025-12-20T16:15",
          "temp_c": 14.3,
          "apparent_temp_c": 14.1,
          "humidity_pct": 83,
          "precip_mm": 0.0,
          "weather_code": 3,
          "cloud_cover_pct": 89,
          "wind_kmh": 4.2,
          "wind_dir_deg": 70
        },
        "today": {
          "date": "2025-12-20",
          "weather_code": 63,
          "temp_max_c": 17.5,
          "temp_min_c": 8.9,
          "precip_sum_mm": 15.2,
          "wind_max_kmh": 17.6
        },
        "tomorrow": {
          "date": "2025-12-21",
          "weather_code": 61,
          "temp_max_c": 18.5,
          "temp_min_c": 12.1,
          "precip_sum_mm": 8.3,
          "wind_max_kmh": 31.0
        }
      }
    },
    {
      "id": "2025-12-20T06:56:51Z",
      "date": "2025-12-20",
      "text": "Cloudy skies today in Yokosuka! Temps reaching 17.5°C with a humidity of 83%. No precipitation expected. Perfect day to explore the Miura Peninsula's scenic coastline or hike up a hill! #Yokosuka #Miura",
      "place": "Yokosuka",
      "generated_at": "2025-12-20T06:56:51Z",
      "weather": {
        "source": "open-meteo",
        "generated_at": "2025-12-20T06:55:01Z",
        "place": "Yokosuka",
        "latitude": 35.281,
        "longitude": 139.6722,
        "timezone": "Asia/Tokyo",
        "current": {
          "time": "2025-12-20T15:45",
          "temp_c": 14.1,
          "apparent_temp_c": 13.8,
          "humidity_pct": 83,
          "precip_mm": 0.0,
          "weather_code": 3,
          "cloud_cover_pct": 92,
          "wind_kmh": 4.0,
          "wind_dir_deg": 85
        },
        "today": {
          "date": "2025-12-20",
          "weather_code": 63,
          "temp_max_c": 17.5,
          "temp_min_c": 8.9,
          "precip_sum_mm": 15.2,
          "wind_max_kmh": 17.6
        },
        "tomorrow": {
          "date": "2025-12-21",
          "weather_code": 61,
          "temp_max_c": 18.5,
          "temp_min_c": 12.1,
          "precip_sum_mm": 8.3,
          "wind_max_kmh": 31.0
        }
      }
    },
    {
      "id": "2025-12-20T06:33:37Z",
      "date": "2025-12-20",
      "text": "Sunny afternoon in Yokosuka! 13.3°C with 86% humidity. Partly cloudy with a gentle 3.8km/h breeze from the east. Perfect day to take a stroll or hike on Miura Peninsula! #Yokosuka #Miura",
      "place": "Yokosuka",
      "generated_at": "2025-12-20T06:33:37Z",
      "weather": {
        "source": "open-meteo",
        "generated_at": "2025-12-20T06:31:42Z",
        "place": "Yokosuka",
        "latitude": 35.281,
        "longitude": 139.6722,
        "timezone": "Asia/Tokyo",
        "current": {
          "time": "2025-12-20T15:30",
          "temp_c": 13.3,
          "apparent_temp_c": 13.1,
          "humidity_pct": 86,
          "precip_mm": 0.0,
          "weather_code": 2,
          "cloud_cover_pct": 75,
          "wind_kmh": 3.8,
          "wind_dir_deg": 73
        },
        "today": {
          "date": "2025-12-20",
          "weather_code": 63,
          "temp_max_c": 16.7,
          "temp_min_c": 8.9,
          "precip_sum_mm": 7.4,
          "wind_max_kmh": 12.5
        },
        "tomorrow": {
          "date": "2025-12-21",
          "weather_code": 63,
          "temp_max_c": 18.8,
          "temp_min_c": 12.8,
          "precip_sum_mm": 14.1,
          "wind_max_kmh": 27.8
        }
      }
    }
  ]
}
