{
  "updated_at": "2025-12-20T23:47:26Z",
  "place": "Yokosuka",
  "page": 10,
  "page_size": 20,
  "total_items": 267,
  "next_url": "page_011.json",
  "items": [
    {
      "id": "2025-12-20T23:47:26Z",
      "date": "2025-12-20",
      "text": "Good morning Yokosuka! Today's weather is looking lovely with a high of 18°C and a gentle 18.8km/h breeze. Perfect day to explore the city! Don't miss the #YokosukaCountdown event at Vellini Park from Dec 31st to Jan 1st, featuring stage events, food trucks, and fireworks!",
      "place": "Yokosuka",
      "generated_at": "2025-12-20T23:47:26Z",
      "weather": {
        "source": "open-meteo",
        "generated_at": "2025-12-20T23:40:28Z",
        "place": "Yokosuka",
        "latitude": 35.281,
        "longitude": 139.6722,
        "timezone": "Asia/Tokyo",
        "current": {
          "time": "2025-12-21T08:30",
          "temp_c": 17.5,
          "apparent_temp_c": 16.1,
          "humidity_pct": 79,
          "precip_mm": 0.0,
          "weather_code": 1,
          "cloud_cover_pct": 46,
          "wind_kmh": 18.8,
          "wind_dir_deg": 200
        },
        "today": {
          "date": "2025-12-21",
          "weather_code": 65,
          "temp_max_c": 18.0,
          "temp_min_c": 12.9,
          "precip_sum_mm": 21.7,
          "wind_max_kmh": 32.9
        },
        "tomorrow": {
          "date": "2025-12-22",
          "weather_code": 2,
          "temp_max_c": 13.2,
          "temp_min_c": 7.3,
          "precip_sum_mm": 0.0,
          "wind_max_kmh": 39.4
        }
      }
    },
    {
      "id": "2025-12-20T23:25:58Z",
      "date": "2025-12-20",
      "text": "Good morning Yokosuka! It's a lovely 17.4°C with 79% humidity and a gentle 17.9km/h breeze today! Perfect weather to explore the city or attend one of the upcoming events! Don't miss the Yoksuka Countdown on Dec 31st to Jan 1st at Vellini Park! #Yokosuka #Miura #Yokohama #Zushi",
      "place": "Yokosuka",
      "generated_at": "2025-12-20T23:25:58Z",
      "weather": {
        "source": "open-meteo",
        "generated_at": "2025-12-20T23:19:25Z",
        "place": "Yokosuka",
        "latitude": 35.281,
        "longitude": 139.6722,
        "timezone": "Asia/Tokyo",
        "current": {
          "time": "2025-12-21T08:15",
          "temp_c": 17.4,
          "apparent_temp_c": 16.0,
          "humidity_pct": 79,
          "precip_mm": 0.0,
          "weather_code": 1,
          "cloud_cover_pct": 45,
          "wind_kmh": 17.9,
          "wind_dir_deg": 202
        },
        "today": {
          "date": "2025-12-21",
          "weather_code": 65,
          "temp_max_c": 18.0,
          "temp_min_c": 12.9,
          "precip_sum_mm": 21.7,
          "wind_max_kmh": 32.9
        },
        "tomorrow": {
          "date": "2025-12-22",
          "weather_code": 2,
          "temp_max_c": 13.2,
          "temp_min_c": 7.3,
          "precip_sum_mm": 0.0,
          "wind_max_kmh": 39.4
        }
      }
    },
    {
      "id": "2025-12-20T22:49:39Z",
      "date": "2025-12-20",
      "text": "Good morning Yokosuka! Currently, it's 17.4°C with 82% humidity and partly cloudy skies. Today's weather is perfect for a stroll around the city or a visit to the beach. Don't miss the Yokosuka Countdown event on Dec 31st to ring in the new year! #Yokosuka #YokosukaCountdown",
      "place": "Yokosuka",
      "generated_at": "2025-12-20T22:49:39Z",
      "weather": {
        "source": "open-meteo",
        "generated_at": "2025-12-20T22:43:10Z",
        "place": "Yokosuka",
        "latitude": 35.281,
        "longitude": 139.6722,
        "timezone": "Asia/Tokyo",
        "current": {
          "time": "2025-12-21T07:30",
          "temp_c": 17.4,
          "apparent_temp_c": 16.3,
          "humidity_pct": 82,
          "precip_mm": 0.0,
          "weather_code": 2,
          "cloud_cover_pct": 58,
          "wind_kmh": 17.2,
          "wind_dir_deg": 213
        },
        "today": {
          "date": "2025-12-21",
          "weather_code": 65,
          "temp_max_c": 18.0,
          "temp_min_c": 12.9,
          "precip_sum_mm": 21.7,
          "wind_max_kmh": 32.9
        },
        "tomorrow": {
          "date": "2025-12-22",
          "weather_code": 2,
          "temp_max_c": 13.2,
          "temp_min_c": 7.3,
          "precip_sum_mm": 0.0,
          "wind_max_kmh": 39.4
        }
      }
    },
    {
      "id": "2025-12-20T22:26:13Z",
      "date": "2025-12-20",
      "text": "Good morning Yokosuka! Today's weather is partly cloudy with a high of 18°C and humidity at 84%. Perfect day to explore the city! Don't miss the Yokosuka Countdown event at Verney Park on Dec 31st & Jan 1st, with live events, food stalls, and fireworks! #Yokosuka #Miura #Yokohama",
      "place": "Yokosuka",
      "generated_at": "2025-12-20T22:26:13Z",
      "weather": {
        "source": "open-meteo",
        "generated_at": "2025-12-20T22:19:18Z",
        "place": "Yokosuka",
        "latitude": 35.281,
        "longitude": 139.6722,
        "timezone": "Asia/Tokyo",
        "current": {
          "time": "2025-12-21T07:15",
          "temp_c": 17.5,
          "apparent_temp_c": 16.5,
          "humidity_pct": 84,
          "precip_mm": 0.0,
          "weather_code": 2,
          "cloud_cover_pct": 65,
          "wind_kmh": 17.4,
          "wind_dir_deg": 218
        },
        "today": {
          "date": "2025-12-21",
          "weather_code": 65,
          "temp_max_c": 18.0,
          "temp_min_c": 12.9,
          "precip_sum_mm": 21.7,
          "wind_max_kmh": 32.9
        },
        "tomorrow": {
          "date": "2025-12-22",
          "weather_code": 2,
          "temp_max_c": 13.2,
          "temp_min_c": 7.3,
          "precip_sum_mm": 0.0,
          "wind_max_kmh": 39.4
        }
      }
    },
    {
      "id": "2025-12-20T21:45:58Z",
      "date": "2025-12-20",
      "text": "Good morning Yokosuka! It's a lovely 17.1°C with 87% humidity and partly cloudy skies today! Don't miss the Yokosuka Countdown event on Dec 31st & Jan 1st at Vellini Park, featuring stage events, food stalls, and a fireworks display! #Yokosuka #Miura",
      "place": "Yokosuka",
      "generated_at": "2025-12-20T21:45:58Z",
      "weather": {
        "source": "open-meteo",
        "generated_at": "2025-12-20T21:39:27Z",
        "place": "Yokosuka",
        "latitude": 35.281,
        "longitude": 139.6722,
        "timezone": "Asia/Tokyo",
        "current": {
          "time": "2025-12-21T06:30",
          "temp_c": 17.1,
          "apparent_temp_c": 16.4,
          "humidity_pct": 87,
          "precip_mm": 0.0,
          "weather_code": 2,
          "cloud_cover_pct": 58,
          "wind_kmh": 16.0,
          "wind_dir_deg": 216
        },
        "today": {
          "date": "2025-12-21",
          "weather_code": 65,
          "temp_max_c": 18.0,
          "temp_min_c": 12.6,
          "precip_sum_mm": 21.9,
          "wind_max_kmh": 32.7
        },
        "tomorrow": {
          "date": "2025-12-22",
          "weather_code": 51,
          "temp_max_c": 13.0,
          "temp_min_c": 7.3,
          "precip_sum_mm": 0.1,
          "wind_max_kmh": 39.6
        }
      }
    },
    {
      "id": "2025-12-20T21:23:58Z",
      "date": "2025-12-20",
      "text": "Good morning Yokosuka! Sunny with a high of 18°C today! Join us for the countdown event at Vellini Park from 18:00 on Dec 31st to 1st Jan, featuring live events, food stalls, and a firework display! #Yokosuka #MiuraPeninsula #Kanagawa",
      "place": "Yokosuka",
      "generated_at": "2025-12-20T21:23:58Z",
      "weather": {
        "source": "open-meteo",
        "generated_at": "2025-12-20T21:17:47Z",
        "place": "Yokosuka",
        "latitude": 35.281,
        "longitude": 139.6722,
        "timezone": "Asia/Tokyo",
        "current": {
          "time": "2025-12-21T06:15",
          "temp_c": 17.0,
          "apparent_temp_c": 16.4,
          "humidity_pct": 88,
          "precip_mm": 0.0,
          "weather_code": 2,
          "cloud_cover_pct": 57,
          "wind_kmh": 15.5,
          "wind_dir_deg": 216
        },
        "today": {
          "date": "2025-12-21",
          "weather_code": 65,
          "temp_max_c": 18.0,
          "temp_min_c": 12.6,
          "precip_sum_mm": 21.9,
          "wind_max_kmh": 32.7
        },
        "tomorrow": {
          "date": "2025-12-22",
          "weather_code": 51,
          "temp_max_c": 13.0,
          "temp_min_c": 7.3,
          "precip_sum_mm": 0.1,
          "wind_max_kmh": 39.6
        }
      }
    },
    {
      "id": "2025-12-20T20:48:37Z",
      "date": "2025-12-20",
      "text": "Good morning Yokosuka! Sunny skies and a pleasant 17°C today! Perfect weather for a stroll around the city. Don't miss the #YokosukaCountdown on Dec 31st, with stage events, kitchen cars, and fireworks!",
      "place": "Yokosuka",
      "generated_at": "2025-12-20T20:48:37Z",
      "weather": {
        "source": "open-meteo",
        "generated_at": "2025-12-20T20:42:39Z",
        "place": "Yokosuka",
        "latitude": 35.281,
        "longitude": 139.6722,
        "timezone": "Asia/Tokyo",
        "current": {
          "time": "2025-12-21T05:30",
          "temp_c": 17.0,
          "apparent_temp_c": 16.9,
          "humidity_pct": 91,
          "precip_mm": 0.0,
          "weather_code": 2,
          "cloud_cover_pct": 50,
          "wind_kmh": 12.8,
          "wind_dir_deg": 218
        },
        "today": {
          "date": "2025-12-21",
          "weather_code": 65,
          "temp_max_c": 18.0,
          "temp_min_c": 12.6,
          "precip_sum_mm": 21.9,
          "wind_max_kmh": 32.7
        },
        "tomorrow": {
          "date": "2025-12-22",
          "weather_code": 51,
          "temp_max_c": 13.0,
          "temp_min_c": 7.3,
          "precip_sum_mm": 0.1,
          "wind_max_kmh": 39.6
        }
      }
    },
    {
      "id": "2025-12-20T20:31:24Z",
      "date": "2025-12-20",
      "text": "Good morning Yokosuka! Today's forecast: partly cloudy with a high of 18°C and 92% humidity. Perfect weather for a stroll around Vervin Park to enjoy the illumination! Don't miss out on the #イルミヨコスカ2025 event from Dec 1st to Mar 22nd! #Yokosuka #Miura",
      "place": "Yokosuka",
      "generated_at": "2025-12-20T20:31:24Z",
      "weather": {
        "source": "open-meteo",
        "generated_at": "2025-12-20T20:26:32Z",
        "place": "Yokosuka",
        "latitude": 35.281,
        "longitude": 139.6722,
        "timezone": "Asia/Tokyo",
        "current": {
          "time": "2025-12-21T05:15",
          "temp_c": 17.0,
          "apparent_temp_c": 17.1,
          "humidity_pct": 91,
          "precip_mm": 0.0,
          "weather_code": 1,
          "cloud_cover_pct": 47,
          "wind_kmh": 11.8,
          "wind_dir_deg": 220
        },
        "today": {
          "date": "2025-12-21",
          "weather_code": 65,
          "temp_max_c": 18.0,
          "temp_min_c": 12.6,
          "precip_sum_mm": 21.9,
          "wind_max_kmh": 32.7
        },
        "tomorrow": {
          "date": "2025-12-22",
          "weather_code": 51,
          "temp_max_c": 13.0,
          "temp_min_c": 7.3,
          "precip_sum_mm": 0.1,
          "wind_max_kmh": 39.6
        }
      }
    },
    {
      "id": "2025-12-20T20:19:11Z",
      "date": "2025-12-20",
      "text": "Good morning Yokosuka! It's a lovely day with a high of 18°C and mostly cloudy skies. Perfect weather to enjoy the beautiful night view at Verney Park or take a stroll along the harbor. Don't miss the Yokosuka Winter Illumination, starting tonight until Jan 4th! #Yokosuka #Miura",
      "place": "Yokosuka",
      "generated_at": "2025-12-20T20:19:11Z",
      "weather": {
        "source": "open-meteo",
        "generated_at": "2025-12-20T20:15:30Z",
        "place": "Yokosuka",
        "latitude": 35.281,
        "longitude": 139.6722,
        "timezone": "Asia/Tokyo",
        "current": {
          "time": "2025-12-21T05:15",
          "temp_c": 17.0,
          "apparent_temp_c": 17.1,
          "humidity_pct": 91,
          "precip_mm": 0.0,
          "weather_code": 1,
          "cloud_cover_pct": 47,
          "wind_kmh": 11.8,
          "wind_dir_deg": 220
        },
        "today": {
          "date": "2025-12-21",
          "weather_code": 65,
          "temp_max_c": 18.0,
          "temp_min_c": 12.6,
          "precip_sum_mm": 21.9,
          "wind_max_kmh": 32.7
        },
        "tomorrow": {
          "date": "2025-12-22",
          "weather_code": 51,
          "temp_max_c": 13.0,
          "temp_min_c": 7.3,
          "precip_sum_mm": 0.1,
          "wind_max_kmh": 39.6
        }
      }
    },
    {
      "id": "2025-12-20T20:08:19Z",
      "date": "2025-12-20",
      "text": "Good morning Yokosuka! Today's weather is overcast with a high of 18°C and a low of 12.6°C. Don't forget to check out the Yokosuka Winter Illumination at Verney Park, starting from today until January 4th! #Yokosuka #MiuraPeninsula #Kanagawa",
      "place": "Yokosuka",
      "generated_at": "2025-12-20T20:08:19Z",
      "weather": {
        "source": "open-meteo",
        "generated_at": "2025-12-20T20:03:31Z",
        "place": "Yokosuka",
        "latitude": 35.281,
        "longitude": 139.6722,
        "timezone": "Asia/Tokyo",
        "current": {
          "time": "2025-12-21T05:00",
          "temp_c": 17.0,
          "apparent_temp_c": 17.3,
          "humidity_pct": 92,
          "precip_mm": 0.0,
          "weather_code": 1,
          "cloud_cover_pct": 44,
          "wind_kmh": 11.0,
          "wind_dir_deg": 221
        },
        "today": {
          "date": "2025-12-21",
          "weather_code": 65,
          "temp_max_c": 18.0,
          "temp_min_c": 12.6,
          "precip_sum_mm": 21.9,
          "wind_max_kmh": 32.7
        },
        "tomorrow": {
          "date": "2025-12-22",
          "weather_code": 51,
          "temp_max_c": 13.0,
          "temp_min_c": 7.3,
          "precip_sum_mm": 0.1,
          "wind_max_kmh": 39.6
        }
      }
    },
    {
      "id": "2025-12-20T19:54:33Z",
      "date": "2025-12-20",
      "text": "Good morning Yokosuka! Today's weather is looking lovely with a high of 18°C and mostly cloudy skies. Don't miss the stunning views of Mt. Fuji on clear days! And, don't forget the Yokosuka Winter Illumination starting from October 31st to January 4th at Vellini Park. #Yokosuka…",
      "place": "Yokosuka",
      "generated_at": "2025-12-20T19:54:33Z",
      "weather": {
        "source": "open-meteo",
        "generated_at": "2025-12-20T19:51:34Z",
        "place": "Yokosuka",
        "latitude": 35.281,
        "longitude": 139.6722,
        "timezone": "Asia/Tokyo",
        "current": {
          "time": "2025-12-21T04:45",
          "temp_c": 17.0,
          "apparent_temp_c": 17.4,
          "humidity_pct": 92,
          "precip_mm": 0.0,
          "weather_code": 1,
          "cloud_cover_pct": 43,
          "wind_kmh": 10.7,
          "wind_dir_deg": 222
        },
        "today": {
          "date": "2025-12-21",
          "weather_code": 65,
          "temp_max_c": 18.0,
          "temp_min_c": 12.6,
          "precip_sum_mm": 21.9,
          "wind_max_kmh": 32.7
        },
        "tomorrow": {
          "date": "2025-12-22",
          "weather_code": 51,
          "temp_max_c": 13.0,
          "temp_min_c": 7.3,
          "precip_sum_mm": 0.1,
          "wind_max_kmh": 39.6
        }
      }
    },
    {
      "id": "2025-12-20T19:43:39Z",
      "date": "2025-12-20",
      "text": "Warm morning in Yokosuka! 17°C with 92% humidity and a gentle 10.7km/h breeze. Enjoy the beautiful day and don't miss Yokosuka Winter Illumination at Verney Park, starting today until Jan 4th! #Yokosuka #Miura",
      "place": "Yokosuka",
      "generated_at": "2025-12-20T19:43:39Z",
      "weather": {
        "source": "open-meteo",
        "generated_at": "2025-12-20T19:40:37Z",
        "place": "Yokosuka",
        "latitude": 35.281,
        "longitude": 139.6722,
        "timezone": "Asia/Tokyo",
        "current": {
          "time": "2025-12-21T04:30",
          "temp_c": 17.0,
          "apparent_temp_c": 17.4,
          "humidity_pct": 92,
          "precip_mm": 0.0,
          "weather_code": 1,
          "cloud_cover_pct": 42,
          "wind_kmh": 10.7,
          "wind_dir_deg": 225
        },
        "today": {
          "date": "2025-12-21",
          "weather_code": 65,
          "temp_max_c": 18.0,
          "temp_min_c": 12.6,
          "precip_sum_mm": 21.9,
          "wind_max_kmh": 32.7
        },
        "tomorrow": {
          "date": "2025-12-22",
          "weather_code": 51,
          "temp_max_c": 13.0,
          "temp_min_c": 7.3,
          "precip_sum_mm": 0.1,
          "wind_max_kmh": 39.6
        }
      }
    },
    {
      "id": "2025-12-20T19:29:22Z",
      "date": "2025-12-20",
      "text": "Cloudy morning in Yokosuka! Today's weather: 17.1°C, 92% humidity, and a gentle 10.4 km/h breeze. Enjoy the scenic views at Vérny Park at night! The Yokosuka Winter Illumination 2025 is ongoing till Jan 4. #Yokosuka #Miura #Yokohama",
      "place": "Yokosuka",
      "generated_at": "2025-12-20T19:29:22Z",
      "weather": {
        "source": "open-meteo",
        "generated_at": "2025-12-20T19:26:43Z",
        "place": "Yokosuka",
        "latitude": 35.281,
        "longitude": 139.6722,
        "timezone": "Asia/Tokyo",
        "current": {
          "time": "2025-12-21T04:15",
          "temp_c": 17.1,
          "apparent_temp_c": 17.6,
          "humidity_pct": 92,
          "precip_mm": 0.0,
          "weather_code": 1,
          "cloud_cover_pct": 42,
          "wind_kmh": 10.4,
          "wind_dir_deg": 226
        },
        "today": {
          "date": "2025-12-21",
          "weather_code": 65,
          "temp_max_c": 18.0,
          "temp_min_c": 12.6,
          "precip_sum_mm": 21.9,
          "wind_max_kmh": 32.7
        },
        "tomorrow": {
          "date": "2025-12-22",
          "weather_code": 51,
          "temp_max_c": 13.0,
          "temp_min_c": 7.3,
          "precip_sum_mm": 0.1,
          "wind_max_kmh": 39.6
        }
      }
    },
    {
      "id": "2025-12-20T19:17:42Z",
      "date": "2025-12-20",
      "text": "Warm and cloudy in Yokosuka today! Temp at 17.1°C, humidity at 92%, and a gentle breeze at 10.4km/h. Perfect day to explore the city! #Yokosuka",
      "place": "Yokosuka",
      "generated_at": "2025-12-20T19:17:42Z",
      "weather": {
        "source": "open-meteo",
        "generated_at": "2025-12-20T19:15:11Z",
        "place": "Yokosuka",
        "latitude": 35.281,
        "longitude": 139.6722,
        "timezone": "Asia/Tokyo",
        "current": {
          "time": "2025-12-21T04:15",
          "temp_c": 17.1,
          "apparent_temp_c": 17.6,
          "humidity_pct": 92,
          "precip_mm": 0.0,
          "weather_code": 1,
          "cloud_cover_pct": 42,
          "wind_kmh": 10.4,
          "wind_dir_deg": 226
        },
        "today": {
          "date": "2025-12-21",
          "weather_code": 65,
          "temp_max_c": 18.0,
          "temp_min_c": 12.6,
          "precip_sum_mm": 21.9,
          "wind_max_kmh": 32.7
        },
        "tomorrow": {
          "date": "2025-12-22",
          "weather_code": 51,
          "temp_max_c": 13.0,
          "temp_min_c": 7.3,
          "precip_sum_mm": 0.1,
          "wind_max_kmh": 39.6
        }
      }
    },
    {
      "id": "2025-12-20T18:50:59Z",
      "date": "2025-12-20",
      "text": "Clear skies and 18°C today in Yokosuka! Perfect day to enjoy the city's scenic views, including the chance to spot Mt. Fuji on a sunny day. #Yokosuka #Miura #Yokohama",
      "place": "Yokosuka",
      "generated_at": "2025-12-20T18:50:59Z",
      "weather": {
        "source": "open-meteo",
        "generated_at": "2025-12-20T18:49:11Z",
        "place": "Yokosuka",
        "latitude": 35.281,
        "longitude": 139.6722,
        "timezone": "Asia/Tokyo",
        "current": {
          "time": "2025-12-21T03:45",
          "temp_c": 17.2,
          "apparent_temp_c": 17.6,
          "humidity_pct": 92,
          "precip_mm": 0.1,
          "weather_code": 51,
          "cloud_cover_pct": 43,
          "wind_kmh": 10.9,
          "wind_dir_deg": 224
        },
        "today": {
          "date": "2025-12-21",
          "weather_code": 65,
          "temp_max_c": 18.0,
          "temp_min_c": 12.6,
          "precip_sum_mm": 21.9,
          "wind_max_kmh": 32.7
        },
        "tomorrow": {
          "date": "2025-12-22",
          "weather_code": 51,
          "temp_max_c": 13.0,
          "temp_min_c": 7.3,
          "precip_sum_mm": 0.1,
          "wind_max_kmh": 39.6
        }
      }
    },
    {
      "id": "2025-12-20T18:28:55Z",
      "date": "2025-12-20",
      "text": "Warm and cozy morning in Yokosuka! Today's forecast: partly cloudy with a high of 18.5°C and a gentle 21.3km/h breeze. Perfect for a stroll along the Miura Peninsula's scenic coastal routes or hiking up one of its many hills. #Yokosuka #Miura",
      "place": "Yokosuka",
      "generated_at": "2025-12-20T18:28:55Z",
      "weather": {
        "source": "open-meteo",
        "generated_at": "2025-12-20T18:27:06Z",
        "place": "Yokosuka",
        "latitude": 35.281,
        "longitude": 139.6722,
        "timezone": "Asia/Tokyo",
        "current": {
          "time": "2025-12-21T03:15",
          "temp_c": 18.5,
          "apparent_temp_c": 17.3,
          "humidity_pct": 83,
          "precip_mm": 0.0,
          "weather_code": 1,
          "cloud_cover_pct": 28,
          "wind_kmh": 21.3,
          "wind_dir_deg": 202
        },
        "today": {
          "date": "2025-12-21",
          "weather_code": 63,
          "temp_max_c": 18.5,
          "temp_min_c": 12.1,
          "precip_sum_mm": 13.6,
          "wind_max_kmh": 30.3
        },
        "tomorrow": {
          "date": "2025-12-22",
          "weather_code": 53,
          "temp_max_c": 12.6,
          "temp_min_c": 7.3,
          "precip_sum_mm": 0.7,
          "wind_max_kmh": 41.1
        }
      }
    },
    {
      "id": "2025-12-20T17:42:41Z",
      "date": "2025-12-20",
      "text": "Tonight's forecast for Yokosuka: Partly cloudy with a high of 18.5°C and 13.6mm of precipitation. Enjoy the gentle 22.3km/h breeze and the scenic views of Mt. Fuji on a clear day! #Yokosuka #Miura",
      "place": "Yokosuka",
      "generated_at": "2025-12-20T17:42:41Z",
      "weather": {
        "source": "open-meteo",
        "generated_at": "2025-12-20T17:40:53Z",
        "place": "Yokosuka",
        "latitude": 35.281,
        "longitude": 139.6722,
        "timezone": "Asia/Tokyo",
        "current": {
          "time": "2025-12-21T02:30",
          "temp_c": 18.5,
          "apparent_temp_c": 17.2,
          "humidity_pct": 84,
          "precip_mm": 0.1,
          "weather_code": 51,
          "cloud_cover_pct": 61,
          "wind_kmh": 22.3,
          "wind_dir_deg": 198
        },
        "today": {
          "date": "2025-12-21",
          "weather_code": 63,
          "temp_max_c": 18.5,
          "temp_min_c": 12.1,
          "precip_sum_mm": 13.6,
          "wind_max_kmh": 30.3
        },
        "tomorrow": {
          "date": "2025-12-22",
          "weather_code": 53,
          "temp_max_c": 12.6,
          "temp_min_c": 7.3,
          "precip_sum_mm": 0.7,
          "wind_max_kmh": 41.1
        }
      }
    },
    {
      "id": "2025-12-20T17:19:37Z",
      "date": "2025-12-20",
      "text": "Currently 18.5°C with 84% humidity and 0.1mm of precipitation! Perfect day to explore Yokosuka's scenic spots, like the ones with views of Mt. Fuji on clear days #Yokosuka #Miura",
      "place": "Yokosuka",
      "generated_at": "2025-12-20T17:19:37Z",
      "weather": {
        "source": "open-meteo",
        "generated_at": "2025-12-20T17:17:54Z",
        "place": "Yokosuka",
        "latitude": 35.281,
        "longitude": 139.6722,
        "timezone": "Asia/Tokyo",
        "current": {
          "time": "2025-12-21T02:15",
          "temp_c": 18.5,
          "apparent_temp_c": 17.1,
          "humidity_pct": 84,
          "precip_mm": 0.1,
          "weather_code": 51,
          "cloud_cover_pct": 81,
          "wind_kmh": 22.9,
          "wind_dir_deg": 196
        },
        "today": {
          "date": "2025-12-21",
          "weather_code": 63,
          "temp_max_c": 18.5,
          "temp_min_c": 12.1,
          "precip_sum_mm": 13.6,
          "wind_max_kmh": 30.3
        },
        "tomorrow": {
          "date": "2025-12-22",
          "weather_code": 53,
          "temp_max_c": 12.6,
          "temp_min_c": 7.3,
          "precip_sum_mm": 0.7,
          "wind_max_kmh": 41.1
        }
      }
    },
    {
      "id": "2025-12-20T17:11:50Z",
      "date": "2025-12-20",
      "text": "Clear morning in Yokosuka! Today's weather is mostly cloudy with a high of 18.5°C and light winds. A bit of rain earlier, but it's all good now! #Yokosuka #Miura",
      "place": "Yokosuka",
      "generated_at": "2025-12-20T17:11:50Z",
      "weather": {
        "source": "open-meteo",
        "generated_at": "2025-12-20T17:10:06Z",
        "place": "Yokosuka",
        "latitude": 35.281,
        "longitude": 139.6722,
        "timezone": "Asia/Tokyo",
        "current": {
          "time": "2025-12-21T02:00",
          "temp_c": 18.5,
          "apparent_temp_c": 17.0,
          "humidity_pct": 84,
          "precip_mm": 0.1,
          "weather_code": 51,
          "cloud_cover_pct": 95,
          "wind_kmh": 23.1,
          "wind_dir_deg": 195
        },
        "today": {
          "date": "2025-12-21",
          "weather_code": 63,
          "temp_max_c": 18.5,
          "temp_min_c": 12.1,
          "precip_sum_mm": 13.6,
          "wind_max_kmh": 30.3
        },
        "tomorrow": {
          "date": "2025-12-22",
          "weather_code": 53,
          "temp_max_c": 12.6,
          "temp_min_c": 7.3,
          "precip_sum_mm": 0.7,
          "wind_max_kmh": 41.1
        }
      }
    },
    {
      "id": "2025-12-20T16:46:48Z",
      "date": "2025-12-20",
      "text": "Tropical morning in Yokosuka! Partly cloudy with a comfortable 18.5°C and 84% humidity. Windy at 22.8km/h from the southwest. Perfect day for a stroll by the sea or a hike in the hills of Miura Peninsula! #Yokosuka #Miura",
      "place": "Yokosuka",
      "generated_at": "2025-12-20T16:46:48Z",
      "weather": {
        "source": "open-meteo",
        "generated_at": "2025-12-20T16:45:00Z",
        "place": "Yokosuka",
        "latitude": 35.281,
        "longitude": 139.6722,
        "timezone": "Asia/Tokyo",
        "current": {
          "time": "2025-12-21T01:45",
          "temp_c": 18.5,
          "apparent_temp_c": 17.1,
          "humidity_pct": 84,
          "precip_mm": 0.0,
          "weather_code": 3,
          "cloud_cover_pct": 96,
          "wind_kmh": 22.8,
          "wind_dir_deg": 196
        },
        "today": {
          "date": "2025-12-21",
          "weather_code": 63,
          "temp_max_c": 18.5,
          "temp_min_c": 12.1,
          "precip_sum_mm": 13.6,
          "wind_max_kmh": 30.3
        },
        "tomorrow": {
          "date": "2025-12-22",
          "weather_code": 53,
          "temp_max_c": 12.6,
          "temp_min_c": 7.3,
          "precip_sum_mm": 0.7,
          "wind_max_kmh": 41.1
        }
      }
    }
  ]
}
