{
  "updated_at": "2025-12-22T08:23:38Z",
  "place": "Yokosuka",
  "page": 8,
  "page_size": 20,
  "total_items": 267,
  "next_url": "page_009.json",
  "items": [
    {
      "id": "2025-12-22T08:23:38Z",
      "date": "2025-12-22",
      "text": "Good evening, Yokosuka! 🌃 As the sun sets on Dec 22nd, the weather is lovely with a temp of 11.2°C and clear skies! 🌙 Tomorrow, enjoy the scenic views of Mt. Fuji from the southern part of the Miura Peninsula 🏞️ and take a hike on one of the many trails! 🏃‍♂️ #Yokosuka #Miura #Yokohama",
      "place": "Yokosuka",
      "generated_at": "2025-12-22T08:23:38Z",
      "weather": {
        "source": "open-meteo",
        "generated_at": "2025-12-22T08:20:10Z",
        "place": "Yokosuka",
        "latitude": 35.281,
        "longitude": 139.6722,
        "timezone": "Asia/Tokyo",
        "current": {
          "time": "2025-12-22T17:15",
          "temp_c": 11.2,
          "apparent_temp_c": 6.3,
          "humidity_pct": 50,
          "precip_mm": 0.0,
          "weather_code": 1,
          "cloud_cover_pct": 38,
          "wind_kmh": 20.8,
          "wind_dir_deg": 23
        },
        "today": {
          "date": "2025-12-22",
          "weather_code": 3,
          "temp_max_c": 12.6,
          "temp_min_c": 7.7,
          "precip_sum_mm": 0.0,
          "wind_max_kmh": 41.0
        },
        "tomorrow": {
          "date": "2025-12-23",
          "weather_code": 1,
          "temp_max_c": 10.1,
          "temp_min_c": 5.4,
          "precip_sum_mm": 0.0,
          "wind_max_kmh": 27.2
        }
      }
    },
    {
      "id": "2025-12-22T08:11:18Z",
      "date": "2025-12-22",
      "text": "🌅 Hey Yokosuka! 🌅 It's a chilly 11.4°C with sunshine today! 🌞 Tomorrow looks even clearer, perfect for a hike on the Miura Peninsula 🏞️ or a stroll along the coast 🏖️. Don't miss the upcoming Yokosuka Christmas Market on Dec 23-25 🎄! #Yokosuka #Miura #Yokohama",
      "place": "Yokosuka",
      "generated_at": "2025-12-22T08:11:18Z",
      "weather": {
        "source": "open-meteo",
        "generated_at": "2025-12-22T08:07:10Z",
        "place": "Yokosuka",
        "latitude": 35.281,
        "longitude": 139.6722,
        "timezone": "Asia/Tokyo",
        "current": {
          "time": "2025-12-22T17:00",
          "temp_c": 11.4,
          "apparent_temp_c": 6.4,
          "humidity_pct": 50,
          "precip_mm": 0.0,
          "weather_code": 1,
          "cloud_cover_pct": 38,
          "wind_kmh": 21.1,
          "wind_dir_deg": 23
        },
        "today": {
          "date": "2025-12-22",
          "weather_code": 3,
          "temp_max_c": 12.6,
          "temp_min_c": 7.7,
          "precip_sum_mm": 0.0,
          "wind_max_kmh": 41.0
        },
        "tomorrow": {
          "date": "2025-12-23",
          "weather_code": 1,
          "temp_max_c": 10.1,
          "temp_min_c": 5.4,
          "precip_sum_mm": 0.0,
          "wind_max_kmh": 27.2
        }
      }
    },
    {
      "id": "2025-12-22T07:55:15Z",
      "date": "2025-12-22",
      "text": "🌞 Hey Yokosuka! 🌃 Current weather: 11.4°C, 50% humidity, and partly cloudy ☁️. Tomorrow's forecast: 10.1°C, sunny ☀️, and calm winds 🌊. Perfect for a hike on the Miura Peninsula 🏞️! Don't miss the Yokosuka Christmas Market 🎄 on Dec 22-24! #Yokosuka #Miura #Yokohama",
      "place": "Yokosuka",
      "generated_at": "2025-12-22T07:55:15Z",
      "weather": {
        "source": "open-meteo",
        "generated_at": "2025-12-22T07:51:12Z",
        "place": "Yokosuka",
        "latitude": 35.281,
        "longitude": 139.6722,
        "timezone": "Asia/Tokyo",
        "current": {
          "time": "2025-12-22T16:45",
          "temp_c": 11.4,
          "apparent_temp_c": 6.3,
          "humidity_pct": 50,
          "precip_mm": 0.0,
          "weather_code": 1,
          "cloud_cover_pct": 40,
          "wind_kmh": 21.6,
          "wind_dir_deg": 24
        },
        "today": {
          "date": "2025-12-22",
          "weather_code": 3,
          "temp_max_c": 12.6,
          "temp_min_c": 7.7,
          "precip_sum_mm": 0.0,
          "wind_max_kmh": 41.0
        },
        "tomorrow": {
          "date": "2025-12-23",
          "weather_code": 1,
          "temp_max_c": 10.1,
          "temp_min_c": 5.4,
          "precip_sum_mm": 0.0,
          "wind_max_kmh": 27.2
        }
      }
    },
    {
      "id": "2025-12-22T07:39:17Z",
      "date": "2025-12-22",
      "text": "Hey Yokosuka! It's 16:30 on Dec 22nd. Today's weather is partly cloudy with a high of 12.6°C and low of 7.7°C. Tomorrow's forecast is looking sunny with a high of 10.1°C and low of 5.4°C! Don't miss out on the \"Rock Garden Bath\" event from 9:30 to 10:30 or 11:00 to 12:00. Book your spot 15 minutes in advance! #Yokosuka #Miura",
      "place": "Yokosuka",
      "generated_at": "2025-12-22T07:39:17Z",
      "weather": {
        "source": "open-meteo",
        "generated_at": "2025-12-22T07:34:37Z",
        "place": "Yokosuka",
        "latitude": 35.281,
        "longitude": 139.6722,
        "timezone": "Asia/Tokyo",
        "current": {
          "time": "2025-12-22T16:30",
          "temp_c": 11.4,
          "apparent_temp_c": 6.3,
          "humidity_pct": 50,
          "precip_mm": 0.0,
          "weather_code": 1,
          "cloud_cover_pct": 43,
          "wind_kmh": 22.2,
          "wind_dir_deg": 25
        },
        "today": {
          "date": "2025-12-22",
          "weather_code": 3,
          "temp_max_c": 12.6,
          "temp_min_c": 7.7,
          "precip_sum_mm": 0.0,
          "wind_max_kmh": 41.0
        },
        "tomorrow": {
          "date": "2025-12-23",
          "weather_code": 1,
          "temp_max_c": 10.1,
          "temp_min_c": 5.4,
          "precip_sum_mm": 0.0,
          "wind_max_kmh": 27.2
        }
      }
    },
    {
      "id": "2025-12-22T01:12:13Z",
      "date": "2025-12-22",
      "text": "Good morning Yokosuka! 🌞 Today's weather is looking great! 9.8°C with sunshine. Why not head to the picnic area surrounded by cherry blossoms for a relaxing afternoon? 🌸🏞️ #Yokosuka #Miura",
      "place": "Yokosuka",
      "generated_at": "2025-12-22T01:12:13Z",
      "weather": {
        "source": "open-meteo",
        "generated_at": "2025-12-22T00:50:07Z",
        "place": "Yokosuka",
        "latitude": 35.281,
        "longitude": 139.6722,
        "timezone": "Asia/Tokyo",
        "current": {
          "time": "2025-12-22T09:45",
          "temp_c": 9.8,
          "apparent_temp_c": 2.2,
          "humidity_pct": 56,
          "precip_mm": 0.0,
          "weather_code": 1,
          "cloud_cover_pct": 44,
          "wind_kmh": 39.4,
          "wind_dir_deg": 5
        },
        "today": {
          "date": "2025-12-22",
          "weather_code": 3,
          "temp_max_c": 12.6,
          "temp_min_c": 7.3,
          "precip_sum_mm": 0.0,
          "wind_max_kmh": 41.0
        },
        "tomorrow": {
          "date": "2025-12-23",
          "weather_code": 1,
          "temp_max_c": 9.9,
          "temp_min_c": 5.2,
          "precip_sum_mm": 0.0,
          "wind_max_kmh": 26.1
        }
      }
    },
    {
      "id": "2025-12-21T23:47:43Z",
      "date": "2025-12-21",
      "text": "Good morning Yokosuka! Today's weather looks great with a high of 12.6°C and partly cloudy skies! Why not take a stroll along the harbor or visit the oceanview cafe \"Tenpū\" for a relaxing morning?",
      "place": "Yokosuka",
      "generated_at": "2025-12-21T23:47:43Z",
      "weather": {
        "source": "open-meteo",
        "generated_at": "2025-12-21T23:29:41Z",
        "place": "Yokosuka",
        "latitude": 35.281,
        "longitude": 139.6722,
        "timezone": "Asia/Tokyo",
        "current": {
          "time": "2025-12-22T08:15",
          "temp_c": 10.2,
          "apparent_temp_c": 2.7,
          "humidity_pct": 57,
          "precip_mm": 0.0,
          "weather_code": 2,
          "cloud_cover_pct": 62,
          "wind_kmh": 39.8,
          "wind_dir_deg": 6
        },
        "today": {
          "date": "2025-12-22",
          "weather_code": 3,
          "temp_max_c": 12.6,
          "temp_min_c": 7.3,
          "precip_sum_mm": 0.0,
          "wind_max_kmh": 41.0
        },
        "tomorrow": {
          "date": "2025-12-23",
          "weather_code": 1,
          "temp_max_c": 10.0,
          "temp_min_c": 5.0,
          "precip_sum_mm": 0.0,
          "wind_max_kmh": 26.3
        }
      }
    },
    {
      "id": "2025-12-21T23:19:21Z",
      "date": "2025-12-21",
      "text": "Good morning Yokosuka! Today's weather is a chilly 10.4°C with 57% humidity and clear skies! Perfect day to explore our beautiful city! Don't miss the Yokosuka Countdown event on Dec 31st and Jan 1st at Velani Park, featuring live events, food stalls, and a stunning fireworks display! #Yokosuka #Miura #Yokohama #Zushi #Hayama",
      "place": "Yokosuka",
      "generated_at": "2025-12-21T23:19:21Z",
      "weather": {
        "source": "open-meteo",
        "generated_at": "2025-12-21T23:12:51Z",
        "place": "Yokosuka",
        "latitude": 35.281,
        "longitude": 139.6722,
        "timezone": "Asia/Tokyo",
        "current": {
          "time": "2025-12-22T08:00",
          "temp_c": 10.4,
          "apparent_temp_c": 2.8,
          "humidity_pct": 57,
          "precip_mm": 0.0,
          "weather_code": 2,
          "cloud_cover_pct": 63,
          "wind_kmh": 39.9,
          "wind_dir_deg": 7
        },
        "today": {
          "date": "2025-12-22",
          "weather_code": 3,
          "temp_max_c": 12.6,
          "temp_min_c": 7.3,
          "precip_sum_mm": 0.0,
          "wind_max_kmh": 41.0
        },
        "tomorrow": {
          "date": "2025-12-23",
          "weather_code": 1,
          "temp_max_c": 10.0,
          "temp_min_c": 5.0,
          "precip_sum_mm": 0.0,
          "wind_max_kmh": 26.3
        }
      }
    },
    {
      "id": "2025-12-21T22:20:46Z",
      "date": "2025-12-21",
      "text": "Good morning Yokosuka! It's a chilly 10.9°C with 58% humidity and clear skies! Perfect weather to explore the city or enjoy the upcoming events! Don't miss the Yokosuka Countdown on Dec 31st and Jan 1st at Verney Park, with live events, food trucks, and fireworks! #Yokosuka #Miura #Yokohama",
      "place": "Yokosuka",
      "generated_at": "2025-12-21T22:20:46Z",
      "weather": {
        "source": "open-meteo",
        "generated_at": "2025-12-21T22:13:01Z",
        "place": "Yokosuka",
        "latitude": 35.281,
        "longitude": 139.6722,
        "timezone": "Asia/Tokyo",
        "current": {
          "time": "2025-12-22T07:00",
          "temp_c": 10.9,
          "apparent_temp_c": 3.5,
          "humidity_pct": 58,
          "precip_mm": 0.0,
          "weather_code": 2,
          "cloud_cover_pct": 69,
          "wind_kmh": 39.3,
          "wind_dir_deg": 8
        },
        "today": {
          "date": "2025-12-22",
          "weather_code": 51,
          "temp_max_c": 12.6,
          "temp_min_c": 7.3,
          "precip_sum_mm": 0.1,
          "wind_max_kmh": 40.0
        },
        "tomorrow": {
          "date": "2025-12-23",
          "weather_code": 1,
          "temp_max_c": 10.0,
          "temp_min_c": 5.1,
          "precip_sum_mm": 0.0,
          "wind_max_kmh": 26.1
        }
      }
    },
    {
      "id": "2025-12-21T21:19:27Z",
      "date": "2025-12-21",
      "text": "Good morning Yokosuka! It's a chilly morning with 11.4°C and 58% humidity. Today's weather is mostly cloudy with a high of 12.6°C and a low of 7.3°C. Don't miss the Yokosuka Countdown event on December 31st! #Yokosuka #Miura",
      "place": "Yokosuka",
      "generated_at": "2025-12-21T21:19:27Z",
      "weather": {
        "source": "open-meteo",
        "generated_at": "2025-12-21T21:11:59Z",
        "place": "Yokosuka",
        "latitude": 35.281,
        "longitude": 139.6722,
        "timezone": "Asia/Tokyo",
        "current": {
          "time": "2025-12-22T06:00",
          "temp_c": 11.4,
          "apparent_temp_c": 4.1,
          "humidity_pct": 58,
          "precip_mm": 0.0,
          "weather_code": 3,
          "cloud_cover_pct": 82,
          "wind_kmh": 39.0,
          "wind_dir_deg": 9
        },
        "today": {
          "date": "2025-12-22",
          "weather_code": 51,
          "temp_max_c": 12.6,
          "temp_min_c": 7.3,
          "precip_sum_mm": 0.1,
          "wind_max_kmh": 40.0
        },
        "tomorrow": {
          "date": "2025-12-23",
          "weather_code": 1,
          "temp_max_c": 10.0,
          "temp_min_c": 5.1,
          "precip_sum_mm": 0.0,
          "wind_max_kmh": 26.1
        }
      }
    },
    {
      "id": "2025-12-21T20:21:08Z",
      "date": "2025-12-21",
      "text": "Good morning Yokosuka! ☀️ Today's weather: partly cloudy with a high of 12.6°C and a low of 7.3°C. Perfect day to enjoy the outdoors! Don't miss the Yoksuka Countdown event at Velney Park on Dec 31st, with stage events, food trucks, and a fireworks display! #Yokosuka #Miura #Yokohama",
      "place": "Yokosuka",
      "generated_at": "2025-12-21T20:21:08Z",
      "weather": {
        "source": "open-meteo",
        "generated_at": "2025-12-21T20:14:07Z",
        "place": "Yokosuka",
        "latitude": 35.281,
        "longitude": 139.6722,
        "timezone": "Asia/Tokyo",
        "current": {
          "time": "2025-12-22T05:00",
          "temp_c": 11.5,
          "apparent_temp_c": 4.4,
          "humidity_pct": 61,
          "precip_mm": 0.0,
          "weather_code": 3,
          "cloud_cover_pct": 91,
          "wind_kmh": 39.3,
          "wind_dir_deg": 11
        },
        "today": {
          "date": "2025-12-22",
          "weather_code": 51,
          "temp_max_c": 12.6,
          "temp_min_c": 7.3,
          "precip_sum_mm": 0.1,
          "wind_max_kmh": 40.0
        },
        "tomorrow": {
          "date": "2025-12-23",
          "weather_code": 1,
          "temp_max_c": 10.0,
          "temp_min_c": 5.1,
          "precip_sum_mm": 0.0,
          "wind_max_kmh": 26.1
        }
      }
    },
    {
      "id": "2025-12-21T19:17:22Z",
      "date": "2025-12-21",
      "text": "Good morning Yokosuka! Currently 11.9°C with 61% humidity. A great day to explore! Don't miss the Yoksuka Countdown on Dec 31st & Jan 1st at Verney Park! #Yokosuka #Miura",
      "place": "Yokosuka",
      "generated_at": "2025-12-21T19:17:22Z",
      "weather": {
        "source": "open-meteo",
        "generated_at": "2025-12-21T19:10:59Z",
        "place": "Yokosuka",
        "latitude": 35.281,
        "longitude": 139.6722,
        "timezone": "Asia/Tokyo",
        "current": {
          "time": "2025-12-22T04:00",
          "temp_c": 11.9,
          "apparent_temp_c": 4.8,
          "humidity_pct": 61,
          "precip_mm": 0.0,
          "weather_code": 1,
          "cloud_cover_pct": 47,
          "wind_kmh": 40.0,
          "wind_dir_deg": 8
        },
        "today": {
          "date": "2025-12-22",
          "weather_code": 51,
          "temp_max_c": 12.6,
          "temp_min_c": 7.3,
          "precip_sum_mm": 0.1,
          "wind_max_kmh": 40.0
        },
        "tomorrow": {
          "date": "2025-12-23",
          "weather_code": 1,
          "temp_max_c": 10.0,
          "temp_min_c": 5.1,
          "precip_sum_mm": 0.0,
          "wind_max_kmh": 26.1
        }
      }
    },
    {
      "id": "2025-12-21T18:24:51Z",
      "date": "2025-12-21",
      "text": "Good morning Yokosuka! Today's forecast: partly cloudy with a high of 12.9°C and a low of 7.6°C. Perfect weather to enjoy the city's events! Don't miss the Yokosuka Countdown on Dec 31st, with stage events, food stalls, and fireworks. #Yokosuka #MiuraPeninsula",
      "place": "Yokosuka",
      "generated_at": "2025-12-21T18:24:51Z",
      "weather": {
        "source": "open-meteo",
        "generated_at": "2025-12-21T18:17:46Z",
        "place": "Yokosuka",
        "latitude": 35.281,
        "longitude": 139.6722,
        "timezone": "Asia/Tokyo",
        "current": {
          "time": "2025-12-22T03:15",
          "temp_c": 12.6,
          "apparent_temp_c": 6.3,
          "humidity_pct": 63,
          "precip_mm": 0.0,
          "weather_code": 2,
          "cloud_cover_pct": 78,
          "wind_kmh": 35.7,
          "wind_dir_deg": 12
        },
        "today": {
          "date": "2025-12-22",
          "weather_code": 3,
          "temp_max_c": 12.9,
          "temp_min_c": 7.6,
          "precip_sum_mm": 0.0,
          "wind_max_kmh": 37.9
        },
        "tomorrow": {
          "date": "2025-12-23",
          "weather_code": 1,
          "temp_max_c": 9.9,
          "temp_min_c": 5.3,
          "precip_sum_mm": 0.0,
          "wind_max_kmh": 27.4
        }
      }
    },
    {
      "id": "2025-12-21T17:18:28Z",
      "date": "2025-12-21",
      "text": "Good morning Yokosuka! ☀️ Currently 12.9°C with 64% humidity and partly cloudy skies. Perfect day to explore the city or enjoy outdoor events! Don't miss the #YokosukaCountdown on Dec 31st, with stage events, food stalls, and fireworks. #Yokosuka #Miura",
      "place": "Yokosuka",
      "generated_at": "2025-12-21T17:18:28Z",
      "weather": {
        "source": "open-meteo",
        "generated_at": "2025-12-21T17:11:20Z",
        "place": "Yokosuka",
        "latitude": 35.281,
        "longitude": 139.6722,
        "timezone": "Asia/Tokyo",
        "current": {
          "time": "2025-12-22T02:00",
          "temp_c": 12.9,
          "apparent_temp_c": 7.4,
          "humidity_pct": 64,
          "precip_mm": 0.0,
          "weather_code": 2,
          "cloud_cover_pct": 60,
          "wind_kmh": 31.5,
          "wind_dir_deg": 14
        },
        "today": {
          "date": "2025-12-22",
          "weather_code": 3,
          "temp_max_c": 12.9,
          "temp_min_c": 7.6,
          "precip_sum_mm": 0.0,
          "wind_max_kmh": 37.9
        },
        "tomorrow": {
          "date": "2025-12-23",
          "weather_code": 1,
          "temp_max_c": 9.9,
          "temp_min_c": 5.3,
          "precip_sum_mm": 0.0,
          "wind_max_kmh": 27.4
        }
      }
    },
    {
      "id": "2025-12-21T16:48:27Z",
      "date": "2025-12-21",
      "text": "Good morning Yokosuka! It's a chilly 12.9°C with 64% humidity and clear skies. Perfect weather to enjoy the upcoming events! Don't miss the Yokosuka Countdown on Dec 31st to Jan 1st, featuring stage events, kitchen cars, and fireworks! #Yokosuka #Miura #Yokohama",
      "place": "Yokosuka",
      "generated_at": "2025-12-21T16:48:27Z",
      "weather": {
        "source": "open-meteo",
        "generated_at": "2025-12-21T16:41:22Z",
        "place": "Yokosuka",
        "latitude": 35.281,
        "longitude": 139.6722,
        "timezone": "Asia/Tokyo",
        "current": {
          "time": "2025-12-22T01:30",
          "temp_c": 12.9,
          "apparent_temp_c": 7.8,
          "humidity_pct": 64,
          "precip_mm": 0.0,
          "weather_code": 1,
          "cloud_cover_pct": 45,
          "wind_kmh": 29.1,
          "wind_dir_deg": 15
        },
        "today": {
          "date": "2025-12-22",
          "weather_code": 3,
          "temp_max_c": 12.9,
          "temp_min_c": 7.6,
          "precip_sum_mm": 0.0,
          "wind_max_kmh": 37.9
        },
        "tomorrow": {
          "date": "2025-12-23",
          "weather_code": 1,
          "temp_max_c": 9.9,
          "temp_min_c": 5.3,
          "precip_sum_mm": 0.0,
          "wind_max_kmh": 27.4
        }
      }
    },
    {
      "id": "2025-12-21T16:26:22Z",
      "date": "2025-12-21",
      "text": "Good morning Yokosuka! It's a chilly 12.9°C with 64% humidity and clear skies! Perfect weather for a stroll around the city. Don't miss the Yokosuka Countdown event on Dec 31st, with fireworks and illuminations at Vellini Park! #Yokosuka #Miura #Yokohama",
      "place": "Yokosuka",
      "generated_at": "2025-12-21T16:26:22Z",
      "weather": {
        "source": "open-meteo",
        "generated_at": "2025-12-21T16:19:19Z",
        "place": "Yokosuka",
        "latitude": 35.281,
        "longitude": 139.6722,
        "timezone": "Asia/Tokyo",
        "current": {
          "time": "2025-12-22T01:15",
          "temp_c": 12.9,
          "apparent_temp_c": 7.9,
          "humidity_pct": 64,
          "precip_mm": 0.0,
          "weather_code": 1,
          "cloud_cover_pct": 37,
          "wind_kmh": 28.0,
          "wind_dir_deg": 16
        },
        "today": {
          "date": "2025-12-22",
          "weather_code": 3,
          "temp_max_c": 12.9,
          "temp_min_c": 7.6,
          "precip_sum_mm": 0.0,
          "wind_max_kmh": 37.9
        },
        "tomorrow": {
          "date": "2025-12-23",
          "weather_code": 1,
          "temp_max_c": 9.9,
          "temp_min_c": 5.3,
          "precip_sum_mm": 0.0,
          "wind_max_kmh": 27.4
        }
      }
    },
    {
      "id": "2025-12-21T15:48:35Z",
      "date": "2025-12-21",
      "text": "Good morning Yokosuka! It's a chilly but sunny day today with a high of 12.9°C and a gentle breeze. Perfect weather to enjoy the upcoming events! Don't miss the Yokosuka Countdown 2025 on Dec 31st & Jan 1st at Velney Park, featuring live events, food trucks, and fireworks. #Yokosuka #Miura #Yokohama",
      "place": "Yokosuka",
      "generated_at": "2025-12-21T15:48:35Z",
      "weather": {
        "source": "open-meteo",
        "generated_at": "2025-12-21T15:41:31Z",
        "place": "Yokosuka",
        "latitude": 35.281,
        "longitude": 139.6722,
        "timezone": "Asia/Tokyo",
        "current": {
          "time": "2025-12-22T00:30",
          "temp_c": 12.9,
          "apparent_temp_c": 7.9,
          "humidity_pct": 67,
          "precip_mm": 0.0,
          "weather_code": 1,
          "cloud_cover_pct": 38,
          "wind_kmh": 29.0,
          "wind_dir_deg": 14
        },
        "today": {
          "date": "2025-12-22",
          "weather_code": 3,
          "temp_max_c": 12.9,
          "temp_min_c": 7.6,
          "precip_sum_mm": 0.0,
          "wind_max_kmh": 37.9
        },
        "tomorrow": {
          "date": "2025-12-23",
          "weather_code": 1,
          "temp_max_c": 9.9,
          "temp_min_c": 5.3,
          "precip_sum_mm": 0.0,
          "wind_max_kmh": 27.4
        }
      }
    },
    {
      "id": "2025-12-21T15:26:11Z",
      "date": "2025-12-21",
      "text": "Good morning Yokosuka! It's a chilly 12.9°C with 69% humidity today! Perfect weather to grab a hot cup of coffee and enjoy the upcoming events! Don't miss the Yokosuka Countdown 2025 on Dec 31st to Jan 1st at Vernal Park! #Yokosuka #Miura #Yokohama",
      "place": "Yokosuka",
      "generated_at": "2025-12-21T15:26:11Z",
      "weather": {
        "source": "open-meteo",
        "generated_at": "2025-12-21T15:19:38Z",
        "place": "Yokosuka",
        "latitude": 35.281,
        "longitude": 139.6722,
        "timezone": "Asia/Tokyo",
        "current": {
          "time": "2025-12-22T00:15",
          "temp_c": 12.9,
          "apparent_temp_c": 7.8,
          "humidity_pct": 69,
          "precip_mm": 0.0,
          "weather_code": 1,
          "cloud_cover_pct": 43,
          "wind_kmh": 30.0,
          "wind_dir_deg": 13
        },
        "today": {
          "date": "2025-12-22",
          "weather_code": 3,
          "temp_max_c": 12.9,
          "temp_min_c": 7.6,
          "precip_sum_mm": 0.0,
          "wind_max_kmh": 37.9
        },
        "tomorrow": {
          "date": "2025-12-23",
          "weather_code": 1,
          "temp_max_c": 9.9,
          "temp_min_c": 5.3,
          "precip_sum_mm": 0.0,
          "wind_max_kmh": 27.4
        }
      }
    },
    {
      "id": "2025-12-21T14:50:03Z",
      "date": "2025-12-21",
      "text": "Good evening Yokosuka! It's a chilly 12.9°C with 72% humidity and 65% cloud cover. Tomorrow's forecast is looking great for a winter wonderland! Don't miss the Yokosuka Countdown on Dec 31st and Jan 1st at Velney Park, featuring live events, food trucks, and a fireworks display! #Yokosuka #MiuraPeninsula #WinterInYokosuka",
      "place": "Yokosuka",
      "generated_at": "2025-12-21T14:50:03Z",
      "weather": {
        "source": "open-meteo",
        "generated_at": "2025-12-21T14:43:03Z",
        "place": "Yokosuka",
        "latitude": 35.281,
        "longitude": 139.6722,
        "timezone": "Asia/Tokyo",
        "current": {
          "time": "2025-12-21T23:30",
          "temp_c": 12.9,
          "apparent_temp_c": 7.7,
          "humidity_pct": 72,
          "precip_mm": 0.1,
          "weather_code": 51,
          "cloud_cover_pct": 65,
          "wind_kmh": 32.8,
          "wind_dir_deg": 9
        },
        "today": {
          "date": "2025-12-21",
          "weather_code": 65,
          "temp_max_c": 18.1,
          "temp_min_c": 13.1,
          "precip_sum_mm": 19.4,
          "wind_max_kmh": 34.0
        },
        "tomorrow": {
          "date": "2025-12-22",
          "weather_code": 3,
          "temp_max_c": 12.9,
          "temp_min_c": 7.6,
          "precip_sum_mm": 0.0,
          "wind_max_kmh": 37.9
        }
      }
    },
    {
      "id": "2025-12-21T14:26:17Z",
      "date": "2025-12-21",
      "text": "Good evening Yokosuka! It's a chilly 13°C with 73% humidity and 7.6°C apparent temperature. Stay warm! Tonight's events: Join the Yokosuka Countdown at Vellini Park from 6pm to 1am on Dec 31st to 1st. Enjoy stage events, food trucks, and fireworks! #Yokosuka #Miura #Yokohama",
      "place": "Yokosuka",
      "generated_at": "2025-12-21T14:26:17Z",
      "weather": {
        "source": "open-meteo",
        "generated_at": "2025-12-21T14:19:13Z",
        "place": "Yokosuka",
        "latitude": 35.281,
        "longitude": 139.6722,
        "timezone": "Asia/Tokyo",
        "current": {
          "time": "2025-12-21T23:15",
          "temp_c": 13.0,
          "apparent_temp_c": 7.6,
          "humidity_pct": 73,
          "precip_mm": 0.1,
          "weather_code": 51,
          "cloud_cover_pct": 75,
          "wind_kmh": 33.7,
          "wind_dir_deg": 7
        },
        "today": {
          "date": "2025-12-21",
          "weather_code": 65,
          "temp_max_c": 18.1,
          "temp_min_c": 13.1,
          "precip_sum_mm": 19.4,
          "wind_max_kmh": 34.0
        },
        "tomorrow": {
          "date": "2025-12-22",
          "weather_code": 3,
          "temp_max_c": 12.9,
          "temp_min_c": 7.6,
          "precip_sum_mm": 0.0,
          "wind_max_kmh": 37.9
        }
      }
    },
    {
      "id": "2025-12-21T13:54:06Z",
      "date": "2025-12-21",
      "text": "Good evening Yokosuka! It's a chilly 13.1°C with 75% humidity and 0.2mm of rain. Perfect weather to cozy up with friends and family! Don't miss the countdown event on Dec 31st at Verney Park, featuring live music, food trucks, and a stunning fireworks display #Yokosuka #Miura",
      "place": "Yokosuka",
      "generated_at": "2025-12-21T13:54:06Z",
      "weather": {
        "source": "open-meteo",
        "generated_at": "2025-12-21T13:46:58Z",
        "place": "Yokosuka",
        "latitude": 35.281,
        "longitude": 139.6722,
        "timezone": "Asia/Tokyo",
        "current": {
          "time": "2025-12-21T22:45",
          "temp_c": 13.1,
          "apparent_temp_c": 8.0,
          "humidity_pct": 75,
          "precip_mm": 0.2,
          "weather_code": 53,
          "cloud_cover_pct": 77,
          "wind_kmh": 32.4,
          "wind_dir_deg": 3
        },
        "today": {
          "date": "2025-12-21",
          "weather_code": 65,
          "temp_max_c": 18.1,
          "temp_min_c": 13.1,
          "precip_sum_mm": 19.4,
          "wind_max_kmh": 34.0
        },
        "tomorrow": {
          "date": "2025-12-22",
          "weather_code": 3,
          "temp_max_c": 12.9,
          "temp_min_c": 7.6,
          "precip_sum_mm": 0.0,
          "wind_max_kmh": 37.9
        }
      }
    }
  ]
}
