{
  "updated_at": "2025-12-20T05:48:22Z",
  "place": "Yokosuka",
  "page": 12,
  "page_size": 20,
  "total_items": 267,
  "next_url": "page_013.json",
  "items": [
    {
      "id": "2025-12-20T05:48:22Z",
      "date": "2025-12-20",
      "text": "Warm and cozy day in Yokosuka! Current temp is 13.1°C, humidity 85% and cloudy. Perfect day for a stroll along the coast or a hike in the hills of Miura Peninsula! #Yokosuka #Miura #Yokohama",
      "place": "Yokosuka",
      "generated_at": "2025-12-20T05:48:22Z",
      "weather": {
        "source": "open-meteo",
        "generated_at": "2025-12-20T05:46:37Z",
        "place": "Yokosuka",
        "latitude": 35.281,
        "longitude": 139.6722,
        "timezone": "Asia/Tokyo",
        "current": {
          "time": "2025-12-20T14:45",
          "temp_c": 13.1,
          "apparent_temp_c": 12.6,
          "humidity_pct": 85,
          "precip_mm": 0.0,
          "weather_code": 3,
          "cloud_cover_pct": 85,
          "wind_kmh": 4.6,
          "wind_dir_deg": 39
        },
        "today": {
          "date": "2025-12-20",
          "weather_code": 63,
          "temp_max_c": 16.7,
          "temp_min_c": 8.9,
          "precip_sum_mm": 7.4,
          "wind_max_kmh": 12.5
        },
        "tomorrow": {
          "date": "2025-12-21",
          "weather_code": 63,
          "temp_max_c": 18.8,
          "temp_min_c": 12.8,
          "precip_sum_mm": 14.1,
          "wind_max_kmh": 27.8
        }
      }
    },
    {
      "id": "2025-12-20T05:22:57Z",
      "date": "2025-12-20",
      "text": "Cloudy with a high of 16.7°C today in Yokosuka! Light winds from the NW. Perfect weather to enjoy the scenic views of Mt. Fuji if it's clear. #Yokosuka #Miura",
      "place": "Yokosuka",
      "generated_at": "2025-12-20T05:22:57Z",
      "weather": {
        "source": "open-meteo",
        "generated_at": "2025-12-20T05:21:07Z",
        "place": "Yokosuka",
        "latitude": 35.281,
        "longitude": 139.6722,
        "timezone": "Asia/Tokyo",
        "current": {
          "time": "2025-12-20T14:15",
          "temp_c": 12.9,
          "apparent_temp_c": 12.3,
          "humidity_pct": 83,
          "precip_mm": 0.0,
          "weather_code": 3,
          "cloud_cover_pct": 87,
          "wind_kmh": 4.8,
          "wind_dir_deg": 27
        },
        "today": {
          "date": "2025-12-20",
          "weather_code": 63,
          "temp_max_c": 16.7,
          "temp_min_c": 8.9,
          "precip_sum_mm": 7.4,
          "wind_max_kmh": 12.5
        },
        "tomorrow": {
          "date": "2025-12-21",
          "weather_code": 63,
          "temp_max_c": 18.8,
          "temp_min_c": 12.8,
          "precip_sum_mm": 14.1,
          "wind_max_kmh": 27.8
        }
      }
    },
    {
      "id": "2025-12-20T04:50:46Z",
      "date": "2025-12-20",
      "text": "Partly cloudy with a high of 15.9°C and 0.1mm of precipitation in Yokosuka today! Enjoy your day exploring the Miura Peninsula, and don't forget to look out for Mount Fuji on a clear day #Yokosuka #Miura",
      "place": "Yokosuka",
      "generated_at": "2025-12-20T04:50:46Z",
      "weather": {
        "source": "open-meteo",
        "generated_at": "2025-12-20T04:49:00Z",
        "place": "Yokosuka",
        "latitude": 35.281,
        "longitude": 139.6722,
        "timezone": "Asia/Tokyo",
        "current": {
          "time": "2025-12-20T13:45",
          "temp_c": 13.1,
          "apparent_temp_c": 12.4,
          "humidity_pct": 85,
          "precip_mm": 0.1,
          "weather_code": 51,
          "cloud_cover_pct": 55,
          "wind_kmh": 6.0,
          "wind_dir_deg": 57
        },
        "today": {
          "date": "2025-12-20",
          "weather_code": 63,
          "temp_max_c": 15.9,
          "temp_min_c": 8.9,
          "precip_sum_mm": 6.7,
          "wind_max_kmh": 11.9
        },
        "tomorrow": {
          "date": "2025-12-21",
          "weather_code": 61,
          "temp_max_c": 18.8,
          "temp_min_c": 12.8,
          "precip_sum_mm": 10.1,
          "wind_max_kmh": 25.3
        }
      }
    },
    {
      "id": "2025-12-20T04:29:30Z",
      "date": "2025-12-20",
      "text": "Partly cloudy day in Yokosuka! Temps will reach 15.9°C with 6.7mm of precipitation. Perfect day for a stroll along the coast or a hike in the hills of Miura Peninsula #Yokosuka #Miura #Kanagawa",
      "place": "Yokosuka",
      "generated_at": "2025-12-20T04:29:30Z",
      "weather": {
        "source": "open-meteo",
        "generated_at": "2025-12-20T04:27:40Z",
        "place": "Yokosuka",
        "latitude": 35.281,
        "longitude": 139.6722,
        "timezone": "Asia/Tokyo",
        "current": {
          "time": "2025-12-20T13:15",
          "temp_c": 12.9,
          "apparent_temp_c": 12.4,
          "humidity_pct": 85,
          "precip_mm": 0.1,
          "weather_code": 51,
          "cloud_cover_pct": 57,
          "wind_kmh": 4.3,
          "wind_dir_deg": 48
        },
        "today": {
          "date": "2025-12-20",
          "weather_code": 63,
          "temp_max_c": 15.9,
          "temp_min_c": 8.9,
          "precip_sum_mm": 6.7,
          "wind_max_kmh": 11.9
        },
        "tomorrow": {
          "date": "2025-12-21",
          "weather_code": 61,
          "temp_max_c": 18.8,
          "temp_min_c": 12.8,
          "precip_sum_mm": 10.1,
          "wind_max_kmh": 25.3
        }
      }
    },
    {
      "id": "2025-12-20T03:55:06Z",
      "date": "2025-12-20",
      "text": "Enjoying a mild 12.7°C day in Yokosuka! Cloudy skies with 85% humidity and 0.2mm of precipitation. Perfect day to explore the city's coastal views, including those that offer glimpses of Mt. Fuji on a clear day! #Yokosuka #Miura",
      "place": "Yokosuka",
      "generated_at": "2025-12-20T03:55:06Z",
      "weather": {
        "source": "open-meteo",
        "generated_at": "2025-12-20T03:53:11Z",
        "place": "Yokosuka",
        "latitude": 35.281,
        "longitude": 139.6722,
        "timezone": "Asia/Tokyo",
        "current": {
          "time": "2025-12-20T12:45",
          "temp_c": 12.7,
          "apparent_temp_c": 12.4,
          "humidity_pct": 85,
          "precip_mm": 0.2,
          "weather_code": 53,
          "cloud_cover_pct": 58,
          "wind_kmh": 3.0,
          "wind_dir_deg": 14
        },
        "today": {
          "date": "2025-12-20",
          "weather_code": 63,
          "temp_max_c": 15.9,
          "temp_min_c": 8.9,
          "precip_sum_mm": 6.7,
          "wind_max_kmh": 11.9
        },
        "tomorrow": {
          "date": "2025-12-21",
          "weather_code": 61,
          "temp_max_c": 18.8,
          "temp_min_c": 12.8,
          "precip_sum_mm": 10.1,
          "wind_max_kmh": 25.3
        }
      }
    },
    {
      "id": "2025-12-20T03:01:37Z",
      "date": "2025-12-20",
      "text": "Cloudy day in Yokosuka! Today's high: 15.9°C, low: 8.9°C. No rain expected, but humidity's at 84%. Perfect for a walk around the Miura Peninsula or taking in the views of Mt. Fuji if the clouds part! #Yokosuka #Miura",
      "place": "Yokosuka",
      "generated_at": "2025-12-20T03:01:37Z",
      "weather": {
        "source": "open-meteo",
        "generated_at": "2025-12-20T02:59:44Z",
        "place": "Yokosuka",
        "latitude": 35.281,
        "longitude": 139.6722,
        "timezone": "Asia/Tokyo",
        "current": {
          "time": "2025-12-20T11:45",
          "temp_c": 12.3,
          "apparent_temp_c": 11.4,
          "humidity_pct": 84,
          "precip_mm": 0.0,
          "weather_code": 2,
          "cloud_cover_pct": 69,
          "wind_kmh": 5.4,
          "wind_dir_deg": 318
        },
        "today": {
          "date": "2025-12-20",
          "weather_code": 63,
          "temp_max_c": 15.9,
          "temp_min_c": 8.9,
          "precip_sum_mm": 6.7,
          "wind_max_kmh": 11.9
        },
        "tomorrow": {
          "date": "2025-12-21",
          "weather_code": 61,
          "temp_max_c": 18.8,
          "temp_min_c": 12.8,
          "precip_sum_mm": 10.1,
          "wind_max_kmh": 25.3
        }
      }
    },
    {
      "id": "2025-12-20T01:28:33Z",
      "date": "2025-12-20",
      "text": "Mild and cloudy in Yokosuka today! 12.1°C with 80% humidity. No rain so far. Great day for a stroll along the Miura Peninsula's coastline or a hike on one of its hills! #Yokosuka #Miura",
      "place": "Yokosuka",
      "generated_at": "2025-12-20T01:28:33Z",
      "weather": {
        "source": "open-meteo",
        "generated_at": "2025-12-20T01:26:43Z",
        "place": "Yokosuka",
        "latitude": 35.281,
        "longitude": 139.6722,
        "timezone": "Asia/Tokyo",
        "current": {
          "time": "2025-12-20T10:15",
          "temp_c": 12.1,
          "apparent_temp_c": 11.0,
          "humidity_pct": 80,
          "precip_mm": 0.0,
          "weather_code": 2,
          "cloud_cover_pct": 53,
          "wind_kmh": 4.8,
          "wind_dir_deg": 333
        },
        "today": {
          "date": "2025-12-20",
          "weather_code": 63,
          "temp_max_c": 15.9,
          "temp_min_c": 8.9,
          "precip_sum_mm": 6.7,
          "wind_max_kmh": 11.9
        },
        "tomorrow": {
          "date": "2025-12-21",
          "weather_code": 61,
          "temp_max_c": 18.8,
          "temp_min_c": 12.8,
          "precip_sum_mm": 10.1,
          "wind_max_kmh": 25.3
        }
      }
    },
    {
      "id": "2025-12-19T23:43:44Z",
      "date": "2025-12-19",
      "text": "Mild and cloudy in Yokosuka today! Temp's reaching 17.6°C with 79% humidity and a gentle breeze. A great day to explore the Miura Peninsula's coastline or hike up a hill. #Yokosuka #Miura",
      "place": "Yokosuka",
      "generated_at": "2025-12-19T23:43:44Z",
      "weather": {
        "source": "open-meteo",
        "generated_at": "2025-12-19T23:41:58Z",
        "place": "Yokosuka",
        "latitude": 35.281,
        "longitude": 139.6722,
        "timezone": "Asia/Tokyo",
        "current": {
          "time": "2025-12-20T08:30",
          "temp_c": 11.2,
          "apparent_temp_c": 9.8,
          "humidity_pct": 79,
          "precip_mm": 0.0,
          "weather_code": 2,
          "cloud_cover_pct": 60,
          "wind_kmh": 5.4,
          "wind_dir_deg": 4
        },
        "today": {
          "date": "2025-12-20",
          "weather_code": 63,
          "temp_max_c": 17.6,
          "temp_min_c": 8.9,
          "precip_sum_mm": 10.3,
          "wind_max_kmh": 12.7
        },
        "tomorrow": {
          "date": "2025-12-21",
          "weather_code": 61,
          "temp_max_c": 18.8,
          "temp_min_c": 12.8,
          "precip_sum_mm": 5.5,
          "wind_max_kmh": 25.9
        }
      }
    },
    {
      "id": "2025-12-19T23:22:52Z",
      "date": "2025-12-19",
      "text": "Partly cloudy day in Yokosuka! Temp's up to 17.6°C, humidity's at 78%. A gentle breeze at 5.1km/h. Perfect weather for a stroll by the sea or a hike in Miura Peninsula! #Yokosuka #Miura",
      "place": "Yokosuka",
      "generated_at": "2025-12-19T23:22:52Z",
      "weather": {
        "source": "open-meteo",
        "generated_at": "2025-12-19T23:21:06Z",
        "place": "Yokosuka",
        "latitude": 35.281,
        "longitude": 139.6722,
        "timezone": "Asia/Tokyo",
        "current": {
          "time": "2025-12-20T08:15",
          "temp_c": 11.1,
          "apparent_temp_c": 9.7,
          "humidity_pct": 78,
          "precip_mm": 0.0,
          "weather_code": 2,
          "cloud_cover_pct": 52,
          "wind_kmh": 5.1,
          "wind_dir_deg": 4
        },
        "today": {
          "date": "2025-12-20",
          "weather_code": 63,
          "temp_max_c": 17.6,
          "temp_min_c": 8.9,
          "precip_sum_mm": 10.3,
          "wind_max_kmh": 12.7
        },
        "tomorrow": {
          "date": "2025-12-21",
          "weather_code": 61,
          "temp_max_c": 18.8,
          "temp_min_c": 12.8,
          "precip_sum_mm": 5.5,
          "wind_max_kmh": 25.9
        }
      }
    },
    {
      "id": "2025-12-19T22:47:21Z",
      "date": "2025-12-19",
      "text": "TODAY in Yokosuka: partly cloudy with a high of 15.7°C and a gentle breeze! Perfect day for a stroll along the coast or a hike in the hills #Yokosuka #Miura",
      "place": "Yokosuka",
      "generated_at": "2025-12-19T22:47:21Z",
      "weather": {
        "source": "open-meteo",
        "generated_at": "2025-12-19T22:45:30Z",
        "place": "Yokosuka",
        "latitude": 35.281,
        "longitude": 139.6722,
        "timezone": "Asia/Tokyo",
        "current": {
          "time": "2025-12-20T07:45",
          "temp_c": 10.8,
          "apparent_temp_c": 9.1,
          "humidity_pct": 79,
          "precip_mm": 0.0,
          "weather_code": 2,
          "cloud_cover_pct": 50,
          "wind_kmh": 6.4,
          "wind_dir_deg": 38
        },
        "today": {
          "date": "2025-12-20",
          "weather_code": 65,
          "temp_max_c": 15.7,
          "temp_min_c": 8.9,
          "precip_sum_mm": 14.4,
          "wind_max_kmh": 11.9
        },
        "tomorrow": {
          "date": "2025-12-21",
          "weather_code": 61,
          "temp_max_c": 19.0,
          "temp_min_c": 12.8,
          "precip_sum_mm": 10.7,
          "wind_max_kmh": 25.3
        }
      }
    },
    {
      "id": "2025-12-19T22:23:54Z",
      "date": "2025-12-19",
      "text": "Sunny morning in Yokosuka! Temp's at 10.4°C, humidity's at 79% and no rain in sight! Perfect day to explore the city or hike up a hill Enjoy the scenic views of Mt. Fuji from a spot with a clear view! #Yokosuka #MiuraPeninsula",
      "place": "Yokosuka",
      "generated_at": "2025-12-19T22:23:54Z",
      "weather": {
        "source": "open-meteo",
        "generated_at": "2025-12-19T22:21:58Z",
        "place": "Yokosuka",
        "latitude": 35.281,
        "longitude": 139.6722,
        "timezone": "Asia/Tokyo",
        "current": {
          "time": "2025-12-20T07:15",
          "temp_c": 10.4,
          "apparent_temp_c": 8.6,
          "humidity_pct": 79,
          "precip_mm": 0.0,
          "weather_code": 1,
          "cloud_cover_pct": 40,
          "wind_kmh": 6.5,
          "wind_dir_deg": 34
        },
        "today": {
          "date": "2025-12-20",
          "weather_code": 65,
          "temp_max_c": 15.7,
          "temp_min_c": 8.9,
          "precip_sum_mm": 14.4,
          "wind_max_kmh": 11.9
        },
        "tomorrow": {
          "date": "2025-12-21",
          "weather_code": 61,
          "temp_max_c": 19.0,
          "temp_min_c": 12.8,
          "precip_sum_mm": 10.7,
          "wind_max_kmh": 25.3
        }
      }
    },
    {
      "id": "2025-12-19T21:43:14Z",
      "date": "2025-12-19",
      "text": "Sunny start to the day in Yokosuka! Currently 9.9°C with 79% humidity. Perfect weather to enjoy the scenic views of Mt. Fuji from some of the higher spots in Miura Peninsula. #Yokosuka #Miura",
      "place": "Yokosuka",
      "generated_at": "2025-12-19T21:43:14Z",
      "weather": {
        "source": "open-meteo",
        "generated_at": "2025-12-19T21:41:29Z",
        "place": "Yokosuka",
        "latitude": 35.281,
        "longitude": 139.6722,
        "timezone": "Asia/Tokyo",
        "current": {
          "time": "2025-12-20T06:30",
          "temp_c": 9.9,
          "apparent_temp_c": 8.2,
          "humidity_pct": 79,
          "precip_mm": 0.0,
          "weather_code": 1,
          "cloud_cover_pct": 45,
          "wind_kmh": 6.2,
          "wind_dir_deg": 10
        },
        "today": {
          "date": "2025-12-20",
          "weather_code": 65,
          "temp_max_c": 15.7,
          "temp_min_c": 8.9,
          "precip_sum_mm": 14.4,
          "wind_max_kmh": 11.9
        },
        "tomorrow": {
          "date": "2025-12-21",
          "weather_code": 61,
          "temp_max_c": 19.0,
          "temp_min_c": 12.8,
          "precip_sum_mm": 10.7,
          "wind_max_kmh": 25.3
        }
      }
    },
    {
      "id": "2025-12-19T21:22:00Z",
      "date": "2025-12-19",
      "text": "Mild morning in Yokosuka! Temp's 9.9°C, humidity's 78%. Cloudy with 49% cover. Wind's gentle at 6.5km/h. Perfect day for a stroll along the Miura Peninsula coast or hiking in the hills! #Yokosuka #Miura",
      "place": "Yokosuka",
      "generated_at": "2025-12-19T21:22:00Z",
      "weather": {
        "source": "open-meteo",
        "generated_at": "2025-12-19T21:20:23Z",
        "place": "Yokosuka",
        "latitude": 35.281,
        "longitude": 139.6722,
        "timezone": "Asia/Tokyo",
        "current": {
          "time": "2025-12-20T06:15",
          "temp_c": 9.9,
          "apparent_temp_c": 7.9,
          "humidity_pct": 78,
          "precip_mm": 0.0,
          "weather_code": 1,
          "cloud_cover_pct": 49,
          "wind_kmh": 6.5,
          "wind_dir_deg": 360
        },
        "today": {
          "date": "2025-12-20",
          "weather_code": 65,
          "temp_max_c": 15.7,
          "temp_min_c": 8.9,
          "precip_sum_mm": 14.4,
          "wind_max_kmh": 11.9
        },
        "tomorrow": {
          "date": "2025-12-21",
          "weather_code": 61,
          "temp_max_c": 19.0,
          "temp_min_c": 12.8,
          "precip_sum_mm": 10.7,
          "wind_max_kmh": 25.3
        }
      }
    },
    {
      "id": "2025-12-19T20:48:11Z",
      "date": "2025-12-19",
      "text": "Good morning Yokosuka! Today's forecast: partly cloudy with a high of 15.7°C and 0mm of precipitation. Perfect day to explore the Miura Peninsula, enjoy the sea views, or hike to the hills! #Yokosuka #Miura",
      "place": "Yokosuka",
      "generated_at": "2025-12-19T20:48:11Z",
      "weather": {
        "source": "open-meteo",
        "generated_at": "2025-12-19T20:46:22Z",
        "place": "Yokosuka",
        "latitude": 35.281,
        "longitude": 139.6722,
        "timezone": "Asia/Tokyo",
        "current": {
          "time": "2025-12-20T05:45",
          "temp_c": 9.8,
          "apparent_temp_c": 7.8,
          "humidity_pct": 78,
          "precip_mm": 0.0,
          "weather_code": 1,
          "cloud_cover_pct": 48,
          "wind_kmh": 6.8,
          "wind_dir_deg": 342
        },
        "today": {
          "date": "2025-12-20",
          "weather_code": 65,
          "temp_max_c": 15.7,
          "temp_min_c": 8.9,
          "precip_sum_mm": 14.4,
          "wind_max_kmh": 11.9
        },
        "tomorrow": {
          "date": "2025-12-21",
          "weather_code": 61,
          "temp_max_c": 19.0,
          "temp_min_c": 12.8,
          "precip_sum_mm": 10.7,
          "wind_max_kmh": 25.3
        }
      }
    },
    {
      "id": "2025-12-19T20:25:23Z",
      "date": "2025-12-19",
      "text": "Foggy morning in Yokosuka! Current temp 9.8°C with 77% humidity. Cloud cover at 41%. A lovely day to explore the Miura Peninsula, with Fuji Mountain visible on clear days! #Yokosuka #Miura",
      "place": "Yokosuka",
      "generated_at": "2025-12-19T20:25:23Z",
      "weather": {
        "source": "open-meteo",
        "generated_at": "2025-12-19T20:23:37Z",
        "place": "Yokosuka",
        "latitude": 35.281,
        "longitude": 139.6722,
        "timezone": "Asia/Tokyo",
        "current": {
          "time": "2025-12-20T05:15",
          "temp_c": 9.8,
          "apparent_temp_c": 7.7,
          "humidity_pct": 77,
          "precip_mm": 0.0,
          "weather_code": 1,
          "cloud_cover_pct": 41,
          "wind_kmh": 7.8,
          "wind_dir_deg": 326
        },
        "today": {
          "date": "2025-12-20",
          "weather_code": 65,
          "temp_max_c": 15.7,
          "temp_min_c": 8.9,
          "precip_sum_mm": 14.4,
          "wind_max_kmh": 11.9
        },
        "tomorrow": {
          "date": "2025-12-21",
          "weather_code": 61,
          "temp_max_c": 19.0,
          "temp_min_c": 12.8,
          "precip_sum_mm": 10.7,
          "wind_max_kmh": 25.3
        }
      }
    },
    {
      "id": "2025-12-19T19:41:51Z",
      "date": "2025-12-19",
      "text": "Good morning Yokosuka! It's a lovely day with clear skies, 9.9°C, and a gentle breeze. Enjoy the sunshine and take a stroll along the coast, maybe even spot Fuji-san from some of the scenic spots #Yokosuka #Miura",
      "place": "Yokosuka",
      "generated_at": "2025-12-19T19:41:51Z",
      "weather": {
        "source": "open-meteo",
        "generated_at": "2025-12-19T19:40:05Z",
        "place": "Yokosuka",
        "latitude": 35.281,
        "longitude": 139.6722,
        "timezone": "Asia/Tokyo",
        "current": {
          "time": "2025-12-20T04:30",
          "temp_c": 9.9,
          "apparent_temp_c": 8.2,
          "humidity_pct": 76,
          "precip_mm": 0.0,
          "weather_code": 1,
          "cloud_cover_pct": 21,
          "wind_kmh": 5.2,
          "wind_dir_deg": 16
        },
        "today": {
          "date": "2025-12-20",
          "weather_code": 65,
          "temp_max_c": 15.7,
          "temp_min_c": 8.9,
          "precip_sum_mm": 14.4,
          "wind_max_kmh": 11.9
        },
        "tomorrow": {
          "date": "2025-12-21",
          "weather_code": 61,
          "temp_max_c": 19.0,
          "temp_min_c": 12.8,
          "precip_sum_mm": 10.7,
          "wind_max_kmh": 25.3
        }
      }
    },
    {
      "id": "2025-12-19T19:20:06Z",
      "date": "2025-12-19",
      "text": "It's a partly cloudy morning in Yokosuka! Temps are mild at 10°C with 75% humidity. No rain in sight! Perfect day to explore the Miura Peninsula's coastal views or hike up a hill. #Yokosuka #Miura",
      "place": "Yokosuka",
      "generated_at": "2025-12-19T19:20:06Z",
      "weather": {
        "source": "open-meteo",
        "generated_at": "2025-12-19T19:18:15Z",
        "place": "Yokosuka",
        "latitude": 35.281,
        "longitude": 139.6722,
        "timezone": "Asia/Tokyo",
        "current": {
          "time": "2025-12-20T04:15",
          "temp_c": 10.0,
          "apparent_temp_c": 8.0,
          "humidity_pct": 75,
          "precip_mm": 0.0,
          "weather_code": 0,
          "cloud_cover_pct": 12,
          "wind_kmh": 6.4,
          "wind_dir_deg": 52
        },
        "today": {
          "date": "2025-12-20",
          "weather_code": 65,
          "temp_max_c": 15.7,
          "temp_min_c": 8.9,
          "precip_sum_mm": 14.4,
          "wind_max_kmh": 11.9
        },
        "tomorrow": {
          "date": "2025-12-21",
          "weather_code": 61,
          "temp_max_c": 19.0,
          "temp_min_c": 12.8,
          "precip_sum_mm": 10.7,
          "wind_max_kmh": 25.3
        }
      }
    },
    {
      "id": "2025-12-19T18:58:19Z",
      "date": "2025-12-19",
      "text": "Mild morning in Yokosuka! 9.9°C, 7.6°C apparent, 73% humidity, and partly cloudy skies. Perfect day to explore the Miura Peninsula's coastal lines and hiking trails! #Yokosuka #Miura",
      "place": "Yokosuka",
      "generated_at": "2025-12-19T18:58:19Z",
      "weather": {
        "source": "open-meteo",
        "generated_at": "2025-12-19T18:56:27Z",
        "place": "Yokosuka",
        "latitude": 35.281,
        "longitude": 139.6722,
        "timezone": "Asia/Tokyo",
        "current": {
          "time": "2025-12-20T03:45",
          "temp_c": 9.9,
          "apparent_temp_c": 7.6,
          "humidity_pct": 73,
          "precip_mm": 0.0,
          "weather_code": 0,
          "cloud_cover_pct": 7,
          "wind_kmh": 7.7,
          "wind_dir_deg": 62
        },
        "today": {
          "date": "2025-12-20",
          "weather_code": 65,
          "temp_max_c": 15.7,
          "temp_min_c": 8.9,
          "precip_sum_mm": 14.4,
          "wind_max_kmh": 11.9
        },
        "tomorrow": {
          "date": "2025-12-21",
          "weather_code": 61,
          "temp_max_c": 19.0,
          "temp_min_c": 12.8,
          "precip_sum_mm": 10.7,
          "wind_max_kmh": 25.3
        }
      }
    },
    {
      "id": "2025-12-19T18:32:34Z",
      "date": "2025-12-19",
      "text": "Clear skies with a high of 15.2°C and a gentle breeze! Enjoy the scenic views of Mt. Fuji on a bright day like today in Yokosuka #Yokosuka #Miura",
      "place": "Yokosuka",
      "generated_at": "2025-12-19T18:32:34Z",
      "weather": {
        "source": "open-meteo",
        "generated_at": "2025-12-19T18:30:57Z",
        "place": "Yokosuka",
        "latitude": 35.281,
        "longitude": 139.6722,
        "timezone": "Asia/Tokyo",
        "current": {
          "time": "2025-12-20T03:30",
          "temp_c": 9.6,
          "apparent_temp_c": 7.0,
          "humidity_pct": 72,
          "precip_mm": 0.0,
          "weather_code": 0,
          "cloud_cover_pct": 16,
          "wind_kmh": 8.7,
          "wind_dir_deg": 30
        },
        "today": {
          "date": "2025-12-20",
          "weather_code": 63,
          "temp_max_c": 15.2,
          "temp_min_c": 8.9,
          "precip_sum_mm": 15.4,
          "wind_max_kmh": 12.3
        },
        "tomorrow": {
          "date": "2025-12-21",
          "weather_code": 61,
          "temp_max_c": 18.7,
          "temp_min_c": 12.8,
          "precip_sum_mm": 9.5,
          "wind_max_kmh": 25.3
        }
      }
    },
    {
      "id": "2025-12-19T17:43:06Z",
      "date": "2025-12-19",
      "text": "Clear skies tonight in Yokosuka! Current temperature is 9.1°C with 70% humidity. Windy at 8.2 km/h from the northwest. Enjoy the Fuji views! #Yokosuka #Miura",
      "place": "Yokosuka",
      "generated_at": "2025-12-19T17:43:06Z",
      "weather": {
        "source": "open-meteo",
        "generated_at": "2025-12-19T17:41:17Z",
        "place": "Yokosuka",
        "latitude": 35.281,
        "longitude": 139.6722,
        "timezone": "Asia/Tokyo",
        "current": {
          "time": "2025-12-20T02:30",
          "temp_c": 9.1,
          "apparent_temp_c": 6.5,
          "humidity_pct": 70,
          "precip_mm": 0.0,
          "weather_code": 0,
          "cloud_cover_pct": 17,
          "wind_kmh": 8.2,
          "wind_dir_deg": 15
        },
        "today": {
          "date": "2025-12-20",
          "weather_code": 63,
          "temp_max_c": 15.2,
          "temp_min_c": 8.9,
          "precip_sum_mm": 15.4,
          "wind_max_kmh": 12.3
        },
        "tomorrow": {
          "date": "2025-12-21",
          "weather_code": 61,
          "temp_max_c": 18.7,
          "temp_min_c": 12.8,
          "precip_sum_mm": 9.5,
          "wind_max_kmh": 25.3
        }
      }
    }
  ]
}
